%!PS-Adobe-3.0
%%Creator: graphviz version 2.38.0 (20140413.2041)
%%Title: %3
%%Pages: (atend)
%%BoundingBox: (atend)
%%EndComments
save
%%BeginProlog
/DotDict 200 dict def
DotDict begin

/setupLatin1 {
mark
/EncodingVector 256 array def
 EncodingVector 0

ISOLatin1Encoding 0 255 getinterval putinterval
EncodingVector 45 /hyphen put

% Set up ISO Latin 1 character encoding
/starnetISO {
        dup dup findfont dup length dict begin
        { 1 index /FID ne { def }{ pop pop } ifelse
        } forall
        /Encoding EncodingVector def
        currentdict end definefont
} def
/Times-Roman starnetISO def
/Times-Italic starnetISO def
/Times-Bold starnetISO def
/Times-BoldItalic starnetISO def
/Helvetica starnetISO def
/Helvetica-Oblique starnetISO def
/Helvetica-Bold starnetISO def
/Helvetica-BoldOblique starnetISO def
/Courier starnetISO def
/Courier-Oblique starnetISO def
/Courier-Bold starnetISO def
/Courier-BoldOblique starnetISO def
cleartomark
} bind def

%%BeginResource: procset graphviz 0 0
/coord-font-family /Times-Roman def
/default-font-family /Times-Roman def
/coordfont coord-font-family findfont 8 scalefont def

/InvScaleFactor 1.0 def
/set_scale {
       dup 1 exch div /InvScaleFactor exch def
       scale
} bind def

% styles
/solid { [] 0 setdash } bind def
/dashed { [9 InvScaleFactor mul dup ] 0 setdash } bind def
/dotted { [1 InvScaleFactor mul 6 InvScaleFactor mul] 0 setdash } bind def
/invis {/fill {newpath} def /stroke {newpath} def /show {pop newpath} def} bind def
/bold { 2 setlinewidth } bind def
/filled { } bind def
/unfilled { } bind def
/rounded { } bind def
/diagonals { } bind def
/tapered { } bind def

% hooks for setting color 
/nodecolor { sethsbcolor } bind def
/edgecolor { sethsbcolor } bind def
/graphcolor { sethsbcolor } bind def
/nopcolor {pop pop pop} bind def

/beginpage {	% i j npages
	/npages exch def
	/j exch def
	/i exch def
	/str 10 string def
	npages 1 gt {
		gsave
			coordfont setfont
			0 0 moveto
			(\() show i str cvs show (,) show j str cvs show (\)) show
		grestore
	} if
} bind def

/set_font {
	findfont exch
	scalefont setfont
} def

% draw text fitted to its expected width
/alignedtext {			% width text
	/text exch def
	/width exch def
	gsave
		width 0 gt {
			[] 0 setdash
			text stringwidth pop width exch sub text length div 0 text ashow
		} if
	grestore
} def

/boxprim {				% xcorner ycorner xsize ysize
		4 2 roll
		moveto
		2 copy
		exch 0 rlineto
		0 exch rlineto
		pop neg 0 rlineto
		closepath
} bind def

/ellipse_path {
	/ry exch def
	/rx exch def
	/y exch def
	/x exch def
	matrix currentmatrix
	newpath
	x y translate
	rx ry scale
	0 0 1 0 360 arc
	setmatrix
} bind def

/endpage { showpage } bind def
/showpage { } def

/layercolorseq
	[	% layer color sequence - darkest to lightest
		[0 0 0]
		[.2 .8 .8]
		[.4 .8 .8]
		[.6 .8 .8]
		[.8 .8 .8]
	]
def

/layerlen layercolorseq length def

/setlayer {/maxlayer exch def /curlayer exch def
	layercolorseq curlayer 1 sub layerlen mod get
	aload pop sethsbcolor
	/nodecolor {nopcolor} def
	/edgecolor {nopcolor} def
	/graphcolor {nopcolor} def
} bind def

/onlayer { curlayer ne {invis} if } def

/onlayers {
	/myupper exch def
	/mylower exch def
	curlayer mylower lt
	curlayer myupper gt
	or
	{invis} if
} def

/curlayer 0 def

%%EndResource
%%EndProlog
%%BeginSetup
14 default-font-family set_font
1 setmiterlimit
% /arrowlength 10 def
% /arrowwidth 5 def

% make sure pdfmark is harmless for PS-interpreters other than Distiller
/pdfmark where {pop} {userdict /pdfmark /cleartomark load put} ifelse
% make '<<' and '>>' safe on PS Level 1 devices
/languagelevel where {pop languagelevel}{1} ifelse
2 lt {
    userdict (<<) cvn ([) cvn load put
    userdict (>>) cvn ([) cvn load put
} if

%%EndSetup
setupLatin1
%%Page: 1 1
%%PageBoundingBox: 36 36 347 2024
%%PageOrientation: Portrait
0 0 1 beginpage
gsave
36 36 311 1988 boxprim clip newpath
1 1 set_scale 0 rotate 40 40 translate
% 1142
gsave
1 setlinewidth
0 0 0 nodecolor
274 1962 28.7 18 ellipse_path stroke
0 0 0 nodecolor
14 /Times-Roman set_font
260 1958.3 moveto 28 (1142) alignedtext
grestore
% 310
gsave
1 setlinewidth
0 0 0 nodecolor
246 1890 27 18 ellipse_path stroke
0 0 0 nodecolor
14 /Times-Roman set_font
235.5 1886.3 moveto 21 (310) alignedtext
grestore
% 1142->310
gsave
1 setlinewidth
0 0 0 edgecolor
newpath 267.36 1944.41 moveto
264.09 1936.22 260.06 1926.14 256.38 1916.95 curveto
stroke
0 0 0 edgecolor
newpath 259.55 1915.45 moveto
252.59 1907.47 lineto
253.05 1918.05 lineto
closepath fill
1 setlinewidth
solid
0 0 0 edgecolor
newpath 259.55 1915.45 moveto
252.59 1907.47 lineto
253.05 1918.05 lineto
closepath stroke
grestore
% 549
gsave
1 setlinewidth
0 0 0 nodecolor
245 1818 27 18 ellipse_path stroke
0 0 0 nodecolor
14 /Times-Roman set_font
234.5 1814.3 moveto 21 (549) alignedtext
grestore
% 310->549
gsave
1 setlinewidth
0 0 0 edgecolor
newpath 245.75 1871.7 moveto
245.64 1863.98 245.51 1854.71 245.39 1846.11 curveto
stroke
0 0 0 edgecolor
newpath 248.89 1846.05 moveto
245.24 1836.1 lineto
241.89 1846.15 lineto
closepath fill
1 setlinewidth
solid
0 0 0 edgecolor
newpath 248.89 1846.05 moveto
245.24 1836.1 lineto
241.89 1846.15 lineto
closepath stroke
grestore
% 593
gsave
1 setlinewidth
0 0 0 nodecolor
244 1746 27 18 ellipse_path stroke
0 0 0 nodecolor
14 /Times-Roman set_font
233.5 1742.3 moveto 21 (593) alignedtext
grestore
% 549->593
gsave
1 setlinewidth
0 0 0 edgecolor
newpath 244.75 1799.7 moveto
244.64 1791.98 244.51 1782.71 244.39 1774.11 curveto
stroke
0 0 0 edgecolor
newpath 247.89 1774.05 moveto
244.24 1764.1 lineto
240.89 1774.15 lineto
closepath fill
1 setlinewidth
solid
0 0 0 edgecolor
newpath 247.89 1774.05 moveto
244.24 1764.1 lineto
240.89 1774.15 lineto
closepath stroke
grestore
% 1110
gsave
1 setlinewidth
0 0 0 nodecolor
243 1674 28.7 18 ellipse_path stroke
0 0 0 nodecolor
14 /Times-Roman set_font
229 1670.3 moveto 28 (1110) alignedtext
grestore
% 593->1110
gsave
1 setlinewidth
0 0 0 edgecolor
newpath 243.75 1727.7 moveto
243.64 1719.98 243.51 1710.71 243.39 1702.11 curveto
stroke
0 0 0 edgecolor
newpath 246.89 1702.05 moveto
243.24 1692.1 lineto
239.89 1702.15 lineto
closepath fill
1 setlinewidth
solid
0 0 0 edgecolor
newpath 246.89 1702.05 moveto
243.24 1692.1 lineto
239.89 1702.15 lineto
closepath stroke
grestore
% 1037
gsave
1 setlinewidth
0 0 0 nodecolor
242 1602 28.7 18 ellipse_path stroke
0 0 0 nodecolor
14 /Times-Roman set_font
228 1598.3 moveto 28 (1037) alignedtext
grestore
% 1110->1037
gsave
1 setlinewidth
0 0 0 edgecolor
newpath 242.75 1655.7 moveto
242.64 1647.98 242.51 1638.71 242.39 1630.11 curveto
stroke
0 0 0 edgecolor
newpath 245.89 1630.05 moveto
242.24 1620.1 lineto
238.89 1630.15 lineto
closepath fill
1 setlinewidth
solid
0 0 0 edgecolor
newpath 245.89 1630.05 moveto
242.24 1620.1 lineto
238.89 1630.15 lineto
closepath stroke
grestore
% 810
gsave
1 setlinewidth
0 0 0 nodecolor
239 1530 27 18 ellipse_path stroke
0 0 0 nodecolor
14 /Times-Roman set_font
228.5 1526.3 moveto 21 (810) alignedtext
grestore
% 1037->810
gsave
1 setlinewidth
0 0 0 edgecolor
newpath 241.26 1583.7 moveto
240.93 1575.98 240.53 1566.71 240.16 1558.11 curveto
stroke
0 0 0 edgecolor
newpath 243.66 1557.95 moveto
239.73 1548.1 lineto
236.66 1558.25 lineto
closepath fill
1 setlinewidth
solid
0 0 0 edgecolor
newpath 243.66 1557.95 moveto
239.73 1548.1 lineto
236.66 1558.25 lineto
closepath stroke
grestore
% 997
gsave
1 setlinewidth
0 0 0 nodecolor
239 1458 27 18 ellipse_path stroke
0 0 0 nodecolor
14 /Times-Roman set_font
228.5 1454.3 moveto 21 (997) alignedtext
grestore
% 810->997
gsave
1 setlinewidth
0 0 0 edgecolor
newpath 239 1511.7 moveto
239 1503.98 239 1494.71 239 1486.11 curveto
stroke
0 0 0 edgecolor
newpath 242.5 1486.1 moveto
239 1476.1 lineto
235.5 1486.1 lineto
closepath fill
1 setlinewidth
solid
0 0 0 edgecolor
newpath 242.5 1486.1 moveto
239 1476.1 lineto
235.5 1486.1 lineto
closepath stroke
grestore
% 1171
gsave
1 setlinewidth
0 0 0 nodecolor
233 1386 28.7 18 ellipse_path stroke
0 0 0 nodecolor
14 /Times-Roman set_font
219 1382.3 moveto 28 (1171) alignedtext
grestore
% 997->1171
gsave
1 setlinewidth
0 0 0 edgecolor
newpath 237.52 1439.7 moveto
236.86 1431.98 236.06 1422.71 235.32 1414.11 curveto
stroke
0 0 0 edgecolor
newpath 238.81 1413.77 moveto
234.47 1404.1 lineto
231.83 1414.37 lineto
closepath fill
1 setlinewidth
solid
0 0 0 edgecolor
newpath 238.81 1413.77 moveto
234.47 1404.1 lineto
231.83 1414.37 lineto
closepath stroke
grestore
% 1187
gsave
1 setlinewidth
0 0 0 nodecolor
221 1314 28.7 18 ellipse_path stroke
0 0 0 nodecolor
14 /Times-Roman set_font
207 1310.3 moveto 28 (1187) alignedtext
grestore
% 1171->1187
gsave
1 setlinewidth
0 0 0 edgecolor
newpath 230.1 1368.05 moveto
228.77 1360.35 227.18 1351.03 225.69 1342.36 curveto
stroke
0 0 0 edgecolor
newpath 229.1 1341.54 moveto
223.96 1332.28 lineto
222.2 1342.72 lineto
closepath fill
1 setlinewidth
solid
0 0 0 edgecolor
newpath 229.1 1341.54 moveto
223.96 1332.28 lineto
222.2 1342.72 lineto
closepath stroke
grestore
% 1216
gsave
1 setlinewidth
0 0 0 nodecolor
221 1242 28.7 18 ellipse_path stroke
0 0 0 nodecolor
14 /Times-Roman set_font
207 1238.3 moveto 28 (1216) alignedtext
grestore
% 1187->1216
gsave
1 setlinewidth
0 0 0 edgecolor
newpath 221 1295.7 moveto
221 1287.98 221 1278.71 221 1270.11 curveto
stroke
0 0 0 edgecolor
newpath 224.5 1270.1 moveto
221 1260.1 lineto
217.5 1270.1 lineto
closepath fill
1 setlinewidth
solid
0 0 0 edgecolor
newpath 224.5 1270.1 moveto
221 1260.1 lineto
217.5 1270.1 lineto
closepath stroke
grestore
% 1240
gsave
1 setlinewidth
0 0 0 nodecolor
196 1170 28.7 18 ellipse_path stroke
0 0 0 nodecolor
14 /Times-Roman set_font
182 1166.3 moveto 28 (1240) alignedtext
grestore
% 1216->1240
gsave
1 setlinewidth
0 0 0 edgecolor
newpath 214.95 1224.05 moveto
212.09 1216.06 208.62 1206.33 205.43 1197.4 curveto
stroke
0 0 0 edgecolor
newpath 208.66 1196.03 moveto
202 1187.79 lineto
202.06 1198.38 lineto
closepath fill
1 setlinewidth
solid
0 0 0 edgecolor
newpath 208.66 1196.03 moveto
202 1187.79 lineto
202.06 1198.38 lineto
closepath stroke
grestore
% 1538
gsave
1 setlinewidth
0 0 0 nodecolor
196 1098 28.7 18 ellipse_path stroke
0 0 0 nodecolor
14 /Times-Roman set_font
182 1094.3 moveto 28 (1538) alignedtext
grestore
% 1240->1538
gsave
1 setlinewidth
0 0 0 edgecolor
newpath 196 1151.7 moveto
196 1143.98 196 1134.71 196 1126.11 curveto
stroke
0 0 0 edgecolor
newpath 199.5 1126.1 moveto
196 1116.1 lineto
192.5 1126.1 lineto
closepath fill
1 setlinewidth
solid
0 0 0 edgecolor
newpath 199.5 1126.1 moveto
196 1116.1 lineto
192.5 1126.1 lineto
closepath stroke
grestore
% 1612
gsave
1 setlinewidth
0 0 0 nodecolor
146 1026 28.7 18 ellipse_path stroke
0 0 0 nodecolor
14 /Times-Roman set_font
132 1022.3 moveto 28 (1612) alignedtext
grestore
% 1538->1612
gsave
1 setlinewidth
0 0 0 edgecolor
newpath 184.65 1081.12 moveto
178.33 1072.26 170.31 1061.04 163.23 1051.12 curveto
stroke
0 0 0 edgecolor
newpath 165.96 1048.92 moveto
157.3 1042.82 lineto
160.27 1052.99 lineto
closepath fill
1 setlinewidth
solid
0 0 0 edgecolor
newpath 165.96 1048.92 moveto
157.3 1042.82 lineto
160.27 1052.99 lineto
closepath stroke
grestore
% 1646
gsave
1 setlinewidth
0 0 0 nodecolor
146 954 28.7 18 ellipse_path stroke
0 0 0 nodecolor
14 /Times-Roman set_font
132 950.3 moveto 28 (1646) alignedtext
grestore
% 1612->1646
gsave
1 setlinewidth
0 0 0 edgecolor
newpath 146 1007.7 moveto
146 999.98 146 990.71 146 982.11 curveto
stroke
0 0 0 edgecolor
newpath 149.5 982.1 moveto
146 972.1 lineto
142.5 982.1 lineto
closepath fill
1 setlinewidth
solid
0 0 0 edgecolor
newpath 149.5 982.1 moveto
146 972.1 lineto
142.5 982.1 lineto
closepath stroke
grestore
% 1798
gsave
1 setlinewidth
0 0 0 nodecolor
145 882 28.7 18 ellipse_path stroke
0 0 0 nodecolor
14 /Times-Roman set_font
131 878.3 moveto 28 (1798) alignedtext
grestore
% 1646->1798
gsave
1 setlinewidth
0 0 0 edgecolor
newpath 145.75 935.7 moveto
145.64 927.98 145.51 918.71 145.39 910.11 curveto
stroke
0 0 0 edgecolor
newpath 148.89 910.05 moveto
145.24 900.1 lineto
141.89 910.15 lineto
closepath fill
1 setlinewidth
solid
0 0 0 edgecolor
newpath 148.89 910.05 moveto
145.24 900.1 lineto
141.89 910.15 lineto
closepath stroke
grestore
% 1798->1798
gsave
1 setlinewidth
0 0 0 edgecolor
newpath 166.09 894.55 moveto
179.16 897.57 191.6 893.39 191.6 882 curveto
191.6 873.64 184.89 869.16 176.15 868.57 curveto
stroke
0 0 0 edgecolor
newpath 175.74 865.09 moveto
166.09 869.45 lineto
176.35 872.06 lineto
closepath fill
1 setlinewidth
solid
0 0 0 edgecolor
newpath 175.74 865.09 moveto
166.09 869.45 lineto
176.35 872.06 lineto
closepath stroke
grestore
% 2367
gsave
1 setlinewidth
0 0 0 nodecolor
124 810 28.7 18 ellipse_path stroke
0 0 0 nodecolor
14 /Times-Roman set_font
110 806.3 moveto 28 (2367) alignedtext
grestore
% 1798->2367
gsave
1 setlinewidth
0 0 0 edgecolor
newpath 139.92 864.05 moveto
137.52 856.06 134.6 846.33 131.92 837.4 curveto
stroke
0 0 0 edgecolor
newpath 135.26 836.36 moveto
129.04 827.79 lineto
128.56 838.37 lineto
closepath fill
1 setlinewidth
solid
0 0 0 edgecolor
newpath 135.26 836.36 moveto
129.04 827.79 lineto
128.56 838.37 lineto
closepath stroke
grestore
% 2269
gsave
1 setlinewidth
0 0 0 nodecolor
83 738 28.7 18 ellipse_path stroke
0 0 0 nodecolor
14 /Times-Roman set_font
69 734.3 moveto 28 (2269) alignedtext
grestore
% 2367->2269
gsave
1 setlinewidth
0 0 0 edgecolor
newpath 114.49 792.76 moveto
109.47 784.19 103.2 773.49 97.58 763.9 curveto
stroke
0 0 0 edgecolor
newpath 100.53 762.01 moveto
92.46 755.15 lineto
94.49 765.55 lineto
closepath fill
1 setlinewidth
solid
0 0 0 edgecolor
newpath 100.53 762.01 moveto
92.46 755.15 lineto
94.49 765.55 lineto
closepath stroke
grestore
% 2091
gsave
1 setlinewidth
0 0 0 nodecolor
147 666 28.7 18 ellipse_path stroke
0 0 0 nodecolor
14 /Times-Roman set_font
133 662.3 moveto 28 (2091) alignedtext
grestore
% 2269->2091
gsave
1 setlinewidth
0 0 0 edgecolor
newpath 96.57 722.15 moveto
105.11 712.82 116.3 700.57 125.97 690 curveto
stroke
0 0 0 edgecolor
newpath 128.84 692.05 moveto
133 682.31 lineto
123.67 687.33 lineto
closepath fill
1 setlinewidth
solid
0 0 0 edgecolor
newpath 128.84 692.05 moveto
133 682.31 lineto
123.67 687.33 lineto
closepath stroke
grestore
% 2051
gsave
1 setlinewidth
0 0 0 nodecolor
175 594 28.7 18 ellipse_path stroke
0 0 0 nodecolor
14 /Times-Roman set_font
161 590.3 moveto 28 (2051) alignedtext
grestore
% 2091->2051
gsave
1 setlinewidth
0 0 0 edgecolor
newpath 153.64 648.41 moveto
156.87 640.34 160.83 630.43 164.46 621.35 curveto
stroke
0 0 0 edgecolor
newpath 167.75 622.54 moveto
168.22 611.96 lineto
161.25 619.94 lineto
closepath fill
1 setlinewidth
solid
0 0 0 edgecolor
newpath 167.75 622.54 moveto
168.22 611.96 lineto
161.25 619.94 lineto
closepath stroke
grestore
% 2058
gsave
1 setlinewidth
0 0 0 nodecolor
137 522 28.7 18 ellipse_path stroke
0 0 0 nodecolor
14 /Times-Roman set_font
123 518.3 moveto 28 (2058) alignedtext
grestore
% 2051->2058
gsave
1 setlinewidth
0 0 0 edgecolor
newpath 166.19 576.76 moveto
161.58 568.28 155.84 557.71 150.68 548.2 curveto
stroke
0 0 0 edgecolor
newpath 153.61 546.27 moveto
145.77 539.15 lineto
147.46 549.61 lineto
closepath fill
1 setlinewidth
solid
0 0 0 edgecolor
newpath 153.61 546.27 moveto
145.77 539.15 lineto
147.46 549.61 lineto
closepath stroke
grestore
% 2104
gsave
1 setlinewidth
0 0 0 nodecolor
132 450 28.7 18 ellipse_path stroke
0 0 0 nodecolor
14 /Times-Roman set_font
118 446.3 moveto 28 (2104) alignedtext
grestore
% 2058->2104
gsave
1 setlinewidth
0 0 0 edgecolor
newpath 135.76 503.7 moveto
135.21 495.98 134.55 486.71 133.94 478.11 curveto
stroke
0 0 0 edgecolor
newpath 137.43 477.83 moveto
133.22 468.1 lineto
130.44 478.33 lineto
closepath fill
1 setlinewidth
solid
0 0 0 edgecolor
newpath 137.43 477.83 moveto
133.22 468.1 lineto
130.44 478.33 lineto
closepath stroke
grestore
% 2145
gsave
1 setlinewidth
0 0 0 nodecolor
207 450 28.7 18 ellipse_path stroke
0 0 0 nodecolor
14 /Times-Roman set_font
193 446.3 moveto 28 (2145) alignedtext
grestore
% 2058->2145
gsave
1 setlinewidth
0 0 0 edgecolor
newpath 151.85 506.15 moveto
161.5 496.5 174.25 483.75 185.06 472.94 curveto
stroke
0 0 0 edgecolor
newpath 187.58 475.37 moveto
192.18 465.82 lineto
182.63 470.42 lineto
closepath fill
1 setlinewidth
solid
0 0 0 edgecolor
newpath 187.58 475.37 moveto
192.18 465.82 lineto
182.63 470.42 lineto
closepath stroke
grestore
% 2182
gsave
1 setlinewidth
0 0 0 nodecolor
57 450 28.7 18 ellipse_path stroke
0 0 0 nodecolor
14 /Times-Roman set_font
43 446.3 moveto 28 (2182) alignedtext
grestore
% 2058->2182
gsave
1 setlinewidth
0 0 0 edgecolor
newpath 120.81 506.83 moveto
109.32 496.78 93.7 483.11 80.79 471.82 curveto
stroke
0 0 0 edgecolor
newpath 83 469.1 moveto
73.17 465.14 lineto
78.39 474.36 lineto
closepath fill
1 setlinewidth
solid
0 0 0 edgecolor
newpath 83 469.1 moveto
73.17 465.14 lineto
78.39 474.36 lineto
closepath stroke
grestore
% 2129
gsave
1 setlinewidth
0 0 0 nodecolor
188 378 28.7 18 ellipse_path stroke
0 0 0 nodecolor
14 /Times-Roman set_font
174 374.3 moveto 28 (2129) alignedtext
grestore
% 2104->2129
gsave
1 setlinewidth
0 0 0 edgecolor
newpath 144.43 433.46 moveto
151.75 424.31 161.16 412.55 169.35 402.31 curveto
stroke
0 0 0 edgecolor
newpath 172.09 404.49 moveto
175.61 394.49 lineto
166.63 400.11 lineto
closepath fill
1 setlinewidth
solid
0 0 0 edgecolor
newpath 172.09 404.49 moveto
175.61 394.49 lineto
166.63 400.11 lineto
closepath stroke
grestore
% 2129->2051
gsave
1 setlinewidth
0 0 0 edgecolor
newpath 207.85 391.1 moveto
221.11 400.43 237.44 414.66 245 432 curveto
251.39 446.67 249.01 452.51 245 468 curveto
235.05 506.38 210.35 545.44 193.12 569.44 curveto
stroke
0 0 0 edgecolor
newpath 190.25 567.44 moveto
187.16 577.57 lineto
195.89 571.58 lineto
closepath fill
1 setlinewidth
solid
0 0 0 edgecolor
newpath 190.25 567.44 moveto
187.16 577.57 lineto
195.89 571.58 lineto
closepath stroke
grestore
% 2145->2051
gsave
1 setlinewidth
0 0 0 edgecolor
newpath 203.11 468.27 moveto
197.6 492.71 187.48 537.63 181 566.37 curveto
stroke
0 0 0 edgecolor
newpath 177.58 565.63 moveto
178.8 576.15 lineto
184.41 567.17 lineto
closepath fill
1 setlinewidth
solid
0 0 0 edgecolor
newpath 177.58 565.63 moveto
178.8 576.15 lineto
184.41 567.17 lineto
closepath stroke
grestore
% 2182->2269
gsave
1 setlinewidth
0 0 0 edgecolor
newpath 58.57 468.31 moveto
62.94 516.31 75.22 651.44 80.52 709.7 curveto
stroke
0 0 0 edgecolor
newpath 77.06 710.32 moveto
81.45 719.97 lineto
84.03 709.69 lineto
closepath fill
1 setlinewidth
solid
0 0 0 edgecolor
newpath 77.06 710.32 moveto
81.45 719.97 lineto
84.03 709.69 lineto
closepath stroke
grestore
% 2326
gsave
1 setlinewidth
0 0 0 nodecolor
57 378 28.7 18 ellipse_path stroke
0 0 0 nodecolor
14 /Times-Roman set_font
43 374.3 moveto 28 (2326) alignedtext
grestore
% 2182->2326
gsave
1 setlinewidth
0 0 0 edgecolor
newpath 57 431.7 moveto
57 423.98 57 414.71 57 406.11 curveto
stroke
0 0 0 edgecolor
newpath 60.5 406.1 moveto
57 396.1 lineto
53.5 406.1 lineto
closepath fill
1 setlinewidth
solid
0 0 0 edgecolor
newpath 60.5 406.1 moveto
57 396.1 lineto
53.5 406.1 lineto
closepath stroke
grestore
% 2216
gsave
1 setlinewidth
0 0 0 nodecolor
57 306 28.7 18 ellipse_path stroke
0 0 0 nodecolor
14 /Times-Roman set_font
43 302.3 moveto 28 (2216) alignedtext
grestore
% 2326->2216
gsave
1 setlinewidth
0 0 0 edgecolor
newpath 57 359.7 moveto
57 351.98 57 342.71 57 334.11 curveto
stroke
0 0 0 edgecolor
newpath 60.5 334.1 moveto
57 324.1 lineto
53.5 334.1 lineto
closepath fill
1 setlinewidth
solid
0 0 0 edgecolor
newpath 60.5 334.1 moveto
57 324.1 lineto
53.5 334.1 lineto
closepath stroke
grestore
% 2216->2269
gsave
1 setlinewidth
0 0 0 edgecolor
newpath 43.51 322.18 moveto
35.26 332.25 25.13 346.12 19 360 curveto
2.65 396.99 0 408.55 0 449 curveto
0 595 0 595 0 595 curveto
0 642.87 35.6 688.95 60.17 715.04 curveto
stroke
0 0 0 edgecolor
newpath 57.91 717.74 moveto
67.39 722.48 lineto
62.93 712.87 lineto
closepath fill
1 setlinewidth
solid
0 0 0 edgecolor
newpath 57.91 717.74 moveto
67.39 722.48 lineto
62.93 712.87 lineto
closepath stroke
grestore
% 2437
gsave
1 setlinewidth
0 0 0 nodecolor
151 234 28.7 18 ellipse_path stroke
0 0 0 nodecolor
14 /Times-Roman set_font
137 230.3 moveto 28 (2437) alignedtext
grestore
% 2216->2437
gsave
1 setlinewidth
0 0 0 edgecolor
newpath 74.68 291.83 moveto
88.77 281.34 108.71 266.49 124.68 254.6 curveto
stroke
0 0 0 edgecolor
newpath 127.15 257.13 moveto
133.08 248.35 lineto
122.97 251.51 lineto
closepath fill
1 setlinewidth
solid
0 0 0 edgecolor
newpath 127.15 257.13 moveto
133.08 248.35 lineto
122.97 251.51 lineto
closepath stroke
grestore
% 2495
gsave
1 setlinewidth
0 0 0 nodecolor
198 162 28.7 18 ellipse_path stroke
0 0 0 nodecolor
14 /Times-Roman set_font
184 158.3 moveto 28 (2495) alignedtext
grestore
% 2437->2495
gsave
1 setlinewidth
0 0 0 edgecolor
newpath 161.67 217.12 moveto
167.55 208.34 174.99 197.26 181.61 187.42 curveto
stroke
0 0 0 edgecolor
newpath 184.71 189.07 moveto
187.38 178.82 lineto
178.9 185.17 lineto
closepath fill
1 setlinewidth
solid
0 0 0 edgecolor
newpath 184.71 189.07 moveto
187.38 178.82 lineto
178.9 185.17 lineto
closepath stroke
grestore
% 2570
gsave
1 setlinewidth
0 0 0 nodecolor
198 90 28.7 18 ellipse_path stroke
0 0 0 nodecolor
14 /Times-Roman set_font
184 86.3 moveto 28 (2570) alignedtext
grestore
% 2495->2570
gsave
1 setlinewidth
0 0 0 edgecolor
newpath 192.12 144.05 moveto
191.29 136.23 191.05 126.75 191.41 117.98 curveto
stroke
0 0 0 edgecolor
newpath 194.92 118.01 moveto
192.14 107.79 lineto
187.93 117.51 lineto
closepath fill
1 setlinewidth
solid
0 0 0 edgecolor
newpath 194.92 118.01 moveto
192.14 107.79 lineto
187.93 117.51 lineto
closepath stroke
grestore
% 2570->1142
gsave
1 setlinewidth
0 0 0 edgecolor
newpath 216.59 103.93 moveto
246.51 126.43 302 175.86 302 233 curveto
302 1819 302 1819 302 1819 curveto
302 1859.77 290.75 1905.91 282.51 1934.23 curveto
stroke
0 0 0 edgecolor
newpath 279.05 1933.58 moveto
279.53 1944.16 lineto
285.76 1935.59 lineto
closepath fill
1 setlinewidth
solid
0 0 0 edgecolor
newpath 279.05 1933.58 moveto
279.53 1944.16 lineto
285.76 1935.59 lineto
closepath stroke
grestore
% 2570->2495
gsave
1 setlinewidth
0 0 0 edgecolor
newpath 203.86 107.79 moveto
204.7 115.59 204.94 125.07 204.6 133.85 curveto
stroke
0 0 0 edgecolor
newpath 201.09 133.83 moveto
203.88 144.05 lineto
208.07 134.33 lineto
closepath fill
1 setlinewidth
solid
0 0 0 edgecolor
newpath 201.09 133.83 moveto
203.88 144.05 lineto
208.07 134.33 lineto
closepath stroke
grestore
% NA
gsave
1 setlinewidth
0 0 0 nodecolor
198 18 27 18 ellipse_path stroke
0 0 0 nodecolor
14 /Times-Roman set_font
188 14.3 moveto 20 (NA) alignedtext
grestore
% 2570->NA
gsave
1 setlinewidth
0 0 0 edgecolor
newpath 198 71.7 moveto
198 63.98 198 54.71 198 46.11 curveto
stroke
0 0 0 edgecolor
newpath 201.5 46.1 moveto
198 36.1 lineto
194.5 46.1 lineto
closepath fill
1 setlinewidth
solid
0 0 0 edgecolor
newpath 201.5 46.1 moveto
198 36.1 lineto
194.5 46.1 lineto
closepath stroke
grestore
endpage
showpage
grestore
%%PageTrailer
%%EndPage: 1
%%Trailer
%%Pages: 1
%%BoundingBox: 36 36 347 2024
end
restore
%%EOF
