"name","run.no.in.std.order","run.no","run.no.std.rp","size","version","Blocks","energy","time"
"1","8",1,"8.1","180","powersave",".1","",""
"2","18",2,"18.1","180","ninamin",".1","",""
"3","5",3,"5.1","160","performance",".1","",""
"4","12",4,"12.1","180","ninalibipcmajor50",".1","",""
"5","16",5,"16.1","180","ninamax",".1","",""
"6","6",6,"6.1","180","performance",".1","",""
"7","15",7,"15.1","160","ninamax",".1","",""
"8","3",8,"3.1","160","ondemand",".1","",""
"9","13",9,"13.1","160","ninalibmissesmajor50",".1","",""
"10","10",10,"10.1","180","nina_misto",".1","",""
"11","7",11,"7.1","160","powersave",".1","",""
"12","17",12,"17.1","160","ninamin",".1","",""
"13","4",13,"4.1","180","ondemand",".1","",""
"14","11",14,"11.1","160","ninalibipcmajor50",".1","",""
"15","14",15,"14.1","180","ninalibmissesmajor50",".1","",""
"16","2",16,"2.1","180","nina_maxstart",".1","",""
"17","9",17,"9.1","160","nina_misto",".1","",""
"18","1",18,"1.1","160","nina_maxstart",".1","",""
"19","3",19,"3.2","160","ondemand",".2","",""
"20","5",20,"5.2","160","performance",".2","",""
"21","14",21,"14.2","180","ninalibmissesmajor50",".2","",""
"22","1",22,"1.2","160","nina_maxstart",".2","",""
"23","6",23,"6.2","180","performance",".2","",""
"24","10",24,"10.2","180","nina_misto",".2","",""
"25","13",25,"13.2","160","ninalibmissesmajor50",".2","",""
"26","17",26,"17.2","160","ninamin",".2","",""
"27","12",27,"12.2","180","ninalibipcmajor50",".2","",""
"28","16",28,"16.2","180","ninamax",".2","",""
"29","7",29,"7.2","160","powersave",".2","",""
"30","11",30,"11.2","160","ninalibipcmajor50",".2","",""
"31","8",31,"8.2","180","powersave",".2","",""
"32","15",32,"15.2","160","ninamax",".2","",""
"33","4",33,"4.2","180","ondemand",".2","",""
"34","9",34,"9.2","160","nina_misto",".2","",""
"35","18",35,"18.2","180","ninamin",".2","",""
"36","2",36,"2.2","180","nina_maxstart",".2","",""
"37","3",37,"3.3","160","ondemand",".3","",""
"38","11",38,"11.3","160","ninalibipcmajor50",".3","",""
"39","5",39,"5.3","160","performance",".3","",""
"40","6",40,"6.3","180","performance",".3","",""
"41","7",41,"7.3","160","powersave",".3","",""
"42","17",42,"17.3","160","ninamin",".3","",""
"43","12",43,"12.3","180","ninalibipcmajor50",".3","",""
"44","10",44,"10.3","180","nina_misto",".3","",""
"45","14",45,"14.3","180","ninalibmissesmajor50",".3","",""
"46","4",46,"4.3","180","ondemand",".3","",""
"47","16",47,"16.3","180","ninamax",".3","",""
"48","2",48,"2.3","180","nina_maxstart",".3","",""
"49","9",49,"9.3","160","nina_misto",".3","",""
"50","18",50,"18.3","180","ninamin",".3","",""
"51","13",51,"13.3","160","ninalibmissesmajor50",".3","",""
"52","8",52,"8.3","180","powersave",".3","",""
"53","15",53,"15.3","160","ninamax",".3","",""
"54","1",54,"1.3","160","nina_maxstart",".3","",""
