%!PS-Adobe-2.0 EPSF-2.0
%%Title: /home/schnorr/svn/gabriel/bitbucket/production/2017_wsppd/methodologyDiagram.dia
%%Creator: Dia v0.97+git
%%CreationDate: Sun Sep  3 07:55:35 2017
%%For: schnorr
%%Orientation: Portrait
%%Magnification: 1.0000
%%BoundingBox: 0 0 742 318
%%BeginSetup
%%EndSetup
%%EndComments
%%BeginProlog
[ /.notdef /.notdef /.notdef /.notdef /.notdef /.notdef /.notdef /.notdef /.notdef /.notdef
/.notdef /.notdef /.notdef /.notdef /.notdef /.notdef /.notdef /.notdef /.notdef /.notdef
/.notdef /.notdef /.notdef /.notdef /.notdef /.notdef /.notdef /.notdef /.notdef /.notdef
/.notdef /.notdef /space /exclam /quotedbl /numbersign /dollar /percent /ampersand /quoteright
/parenleft /parenright /asterisk /plus /comma /hyphen /period /slash /zero /one
/two /three /four /five /six /seven /eight /nine /colon /semicolon
/less /equal /greater /question /at /A /B /C /D /E
/F /G /H /I /J /K /L /M /N /O
/P /Q /R /S /T /U /V /W /X /Y
/Z /bracketleft /backslash /bracketright /asciicircum /underscore /quoteleft /a /b /c
/d /e /f /g /h /i /j /k /l /m
/n /o /p /q /r /s /t /u /v /w
/x /y /z /braceleft /bar /braceright /asciitilde /.notdef /.notdef /.notdef
/.notdef /.notdef /.notdef /.notdef /.notdef /.notdef /.notdef /.notdef /.notdef /.notdef
/.notdef /.notdef /.notdef /.notdef /.notdef /.notdef /.notdef /.notdef /.notdef /.notdef
/.notdef /.notdef /.notdef /.notdef /.notdef /.notdef /.notdef /.notdef /.notdef /.notdef
/space /exclamdown /cent /sterling /currency /yen /brokenbar /section /dieresis /copyright
/ordfeminine /guillemotleft /logicalnot /hyphen /registered /macron /degree /plusminus /twosuperior /threesuperior
/acute /mu /paragraph /periodcentered /cedilla /onesuperior /ordmasculine /guillemotright /onequarter /onehalf
/threequarters /questiondown /Agrave /Aacute /Acircumflex /Atilde /Adieresis /Aring /AE /Ccedilla
/Egrave /Eacute /Ecircumflex /Edieresis /Igrave /Iacute /Icircumflex /Idieresis /Eth /Ntilde
/Ograve /Oacute /Ocircumflex /Otilde /Odieresis /multiply /Oslash /Ugrave /Uacute /Ucircumflex
/Udieresis /Yacute /Thorn /germandbls /agrave /aacute /acircumflex /atilde /adieresis /aring
/ae /ccedilla /egrave /eacute /ecircumflex /edieresis /igrave /iacute /icircumflex /idieresis
/eth /ntilde /ograve /oacute /ocircumflex /otilde /odieresis /divide /oslash /ugrave
/uacute /ucircumflex /udieresis /yacute /thorn /ydieresis] /isolatin1encoding exch def
/cp {closepath} bind def
/c {curveto} bind def
/f {fill} bind def
/a {arc} bind def
/ef {eofill} bind def
/ex {exch} bind def
/gr {grestore} bind def
/gs {gsave} bind def
/sa {save} bind def
/rs {restore} bind def
/l {lineto} bind def
/m {moveto} bind def
/rm {rmoveto} bind def
/n {newpath} bind def
/s {stroke} bind def
/sh {show} bind def
/slc {setlinecap} bind def
/slj {setlinejoin} bind def
/slw {setlinewidth} bind def
/srgb {setrgbcolor} bind def
/rot {rotate} bind def
/sc {scale} bind def
/sd {setdash} bind def
/ff {findfont} bind def
/sf {setfont} bind def
/scf {scalefont} bind def
/sw {stringwidth pop} bind def
/tr {translate} bind def

/ellipsedict 8 dict def
ellipsedict /mtrx matrix put
/ellipse
{ ellipsedict begin
   /endangle exch def
   /startangle exch def
   /yrad exch def
   /xrad exch def
   /y exch def
   /x exch def   /savematrix mtrx currentmatrix def
   x y tr xrad yrad sc
   0 0 1 startangle endangle arc
   savematrix setmatrix
   end
} def

/mergeprocs {
dup length
3 -1 roll
dup
length
dup
5 1 roll
3 -1 roll
add
array cvx
dup
3 -1 roll
0 exch
putinterval
dup
4 2 roll
putinterval
} bind def
/dpi_x 300 def
/dpi_y 300 def
/conicto {
    /to_y exch def
    /to_x exch def
    /conic_cntrl_y exch def
    /conic_cntrl_x exch def
    currentpoint
    /p0_y exch def
    /p0_x exch def
    /p1_x p0_x conic_cntrl_x p0_x sub 2 3 div mul add def
    /p1_y p0_y conic_cntrl_y p0_y sub 2 3 div mul add def
    /p2_x p1_x to_x p0_x sub 1 3 div mul add def
    /p2_y p1_y to_y p0_y sub 1 3 div mul add def
    p1_x p1_y p2_x p2_y to_x to_y curveto
} bind def
/start_ol { gsave 1.1 dpi_x div dup scale} bind def
/end_ol { closepath fill grestore } bind def
28.346000 -28.346000 scale
-3.776270 -11.825410 translate
%%EndProlog


0.100000 slw
[] 0 sd
0 slc
0 slj
0.100000 slw
0 slc
0 slj
[] 0 sd
0.678431 0.886275 0.678431 srgb
n 6.862970 1.383087 m 7.648970 0.901837 8.041970 0.741420 8.827970 0.741420 c 9.613970 0.741420 10.006970 0.901837 10.792970 1.383087 c 10.792970 3.949753 l 10.006970 4.431003 9.613970 4.591420 8.827970 4.591420 c 8.041970 4.591420 7.648970 4.431003 6.862970 3.949753 c 6.862970 1.383087 l ef
0.000000 0.000000 0.000000 srgb
n 6.862970 1.383087 m 7.648970 0.901837 8.041970 0.741420 8.827970 0.741420 c 9.613970 0.741420 10.006970 0.901837 10.792970 1.383087 c 10.792970 3.949753 l 10.006970 4.431003 9.613970 4.591420 8.827970 4.591420 c 8.041970 4.591420 7.648970 4.431003 6.862970 3.949753 c 6.862970 1.383087 l s
0 slc
0 slj
[] 0 sd
n 6.862970 1.383087 m 7.648970 1.864337 8.041970 2.024753 8.827970 2.024753 c 9.613970 2.024753 10.006970 1.864337 10.792970 1.383087 c s
gsave 7.279220 3.187253 translate 0.035278 -0.035278 scale
start_ol
447 3520 moveto
1964 3520 lineto
2641 3520 3003 3221 conicto
3365 2922 3365 2369 conicto
3365 1814 3003 1515 conicto
2641 1216 1964 1216 conicto
1361 1216 lineto
1361 0 lineto
447 0 lineto
447 3520 lineto
1361 2880 moveto
1361 1856 lineto
1867 1856 lineto
2133 1856 2278 1990 conicto
2423 2124 2423 2369 conicto
2423 2615 2278 2747 conicto
2133 2880 1867 2880 conicto
1361 2880 lineto
end_ol grestore 
gsave 7.748781 3.187253 translate 0.035278 -0.035278 scale
start_ol
2385 1920 moveto
2273 1985 2162 2016 conicto
2052 2048 1941 2048 conicto
1613 2048 1436 1832 conicto
1259 1617 1259 1216 conicto
1259 0 lineto
409 0 lineto
409 2688 lineto
1259 2688 lineto
1259 2240 lineto
1423 2507 1635 2629 conicto
1848 2752 2145 2752 conicto
2188 2752 2238 2748 conicto
2288 2745 2383 2733 conicto
2385 1920 lineto
end_ol grestore 
gsave 8.063486 3.187253 translate 0.035278 -0.035278 scale
start_ol
1675 2112 moveto
1392 2112 1243 1914 conicto
1095 1716 1095 1344 conicto
1095 972 1243 774 conicto
1392 576 1675 576 conicto
1952 576 2099 774 conicto
2247 972 2247 1344 conicto
2247 1716 2099 1914 conicto
1952 2112 1675 2112 conicto
1675 2752 moveto
2361 2752 2747 2378 conicto
3133 2005 3133 1344 conicto
3133 683 2747 309 conicto
2361 -64 1675 -64 conicto
986 -64 597 309 conicto
209 683 209 1344 conicto
209 2005 597 2378 conicto
986 2752 1675 2752 conicto
end_ol grestore 
gsave 8.503075 3.187253 translate 0.035278 -0.035278 scale
start_ol
2218 448 moveto
2042 217 1831 108 conicto
1620 0 1342 0 conicto
855 0 537 388 conicto
219 776 219 1377 conicto
219 1980 537 2366 conicto
855 2752 1342 2752 conicto
1620 2752 1831 2644 conicto
2042 2536 2218 2304 conicto
2218 2688 lineto
3073 2688 lineto
3073 266 lineto
3073 -362 2668 -693 conicto
2263 -1024 1494 -1024 conicto
1245 -1024 1012 -976 conicto
779 -929 544 -832 conicto
544 -192 lineto
767 -321 981 -384 conicto
1195 -448 1411 -448 conicto
1829 -448 2023 -275 conicto
2218 -102 2218 266 conicto
2218 448 lineto
1658 2112 moveto
1394 2112 1247 1919 conicto
1100 1727 1100 1375 conicto
1100 1013 1242 826 conicto
1385 640 1658 640 conicto
1924 640 2071 832 conicto
2218 1025 2218 1375 conicto
2218 1727 2071 1919 conicto
1924 2112 1658 2112 conicto
end_ol grestore 
gsave 8.960143 3.187253 translate 0.035278 -0.035278 scale
start_ol
2385 1920 moveto
2273 1985 2162 2016 conicto
2052 2048 1941 2048 conicto
1613 2048 1436 1832 conicto
1259 1617 1259 1216 conicto
1259 0 lineto
409 0 lineto
409 2688 lineto
1259 2688 lineto
1259 2240 lineto
1423 2507 1635 2629 conicto
1848 2752 2145 2752 conicto
2188 2752 2238 2748 conicto
2288 2745 2383 2733 conicto
2385 1920 lineto
end_ol grestore 
gsave 9.274848 3.187253 translate 0.035278 -0.035278 scale
start_ol
1601 1216 moveto
1335 1216 1200 1125 conicto
1066 1035 1066 858 conicto
1066 696 1174 604 conicto
1282 512 1475 512 conicto
1715 512 1879 685 conicto
2043 858 2043 1118 conicto
2043 1216 lineto
1601 1216 lineto
2900 1541 moveto
2900 0 lineto
2043 0 lineto
2043 384 lineto
1872 150 1658 43 conicto
1444 -64 1138 -64 conicto
725 -64 467 180 conicto
209 424 209 813 conicto
209 1286 530 1507 conicto
852 1728 1541 1728 conicto
2043 1728 lineto
2043 1800 lineto
2043 1995 1884 2085 conicto
1725 2176 1387 2176 conicto
1114 2176 879 2128 conicto
644 2080 442 1984 conicto
442 2624 lineto
715 2687 990 2719 conicto
1266 2752 1541 2752 conicto
2261 2752 2580 2467 conicto
2900 2182 2900 1541 conicto
end_ol grestore 
gsave 9.706937 3.187253 translate 0.035278 -0.035278 scale
start_ol
2874 2251 moveto
3036 2496 3258 2624 conicto
3480 2752 3746 2752 conicto
4204 2752 4444 2468 conicto
4684 2184 4684 1642 conicto
4684 0 lineto
3829 0 lineto
3829 1406 lineto
3831 1437 3832 1471 conicto
3833 1505 3833 1567 conicto
3833 1854 3750 1983 conicto
3667 2112 3482 2112 conicto
3239 2112 3107 1910 conicto
2976 1708 2971 1325 conicto
2971 0 lineto
2116 0 lineto
2116 1406 lineto
2116 1854 2040 1983 conicto
1964 2112 1769 2112 conicto
1525 2112 1392 1908 conicto
1259 1705 1259 1327 conicto
1259 0 lineto
404 0 lineto
404 2688 lineto
1259 2688 lineto
1259 2304 lineto
1416 2527 1619 2639 conicto
1822 2752 2067 2752 conicto
2342 2752 2553 2620 conicto
2765 2489 2874 2251 conicto
end_ol grestore 
0.100000 slw
[] 0 sd
0 slc
0 slj
0.100000 slw
0 slc
0 slj
[] 0 sd
0.937255 0.890196 0.800000 srgb
n 12.801800 1.232840 m 22.151800 1.232840 l 22.151800 3.932840 l 12.801800 3.932840 l ef
0.000000 0.000000 0.000000 srgb
n 12.801800 1.232840 m 22.151800 1.232840 l 22.151800 3.932840 l 12.801800 3.932840 l cp s
0 slc
0 slj
[] 0 sd
n 13.736800 1.232840 m 13.736800 3.932840 l s
0 slc
0 slj
[] 0 sd
n 21.216800 1.232840 m 21.216800 3.932840 l s
gsave 14.181800 1.982840 translate 0.035278 -0.035278 scale
start_ol
end_ol grestore 
gsave 14.384107 1.982840 translate 0.035278 -0.035278 scale
start_ol
477 3520 moveto
957 3520 lineto
957 2112 lineto
2700 2112 lineto
2700 3520 lineto
3180 3520 lineto
3180 0 lineto
2700 0 lineto
2700 1728 lineto
957 1728 lineto
957 0 lineto
477 0 lineto
477 3520 lineto
end_ol grestore 
gsave 14.866153 1.982840 translate 0.035278 -0.035278 scale
start_ol
1667 1344 moveto
1137 1344 933 1225 conicto
729 1106 729 818 conicto
729 589 882 454 conicto
1035 320 1299 320 conicto
1663 320 1882 572 conicto
2102 825 2102 1244 conicto
2102 1344 lineto
1667 1344 lineto
2539 1513 moveto
2539 0 lineto
2102 0 lineto
2102 384 lineto
1952 154 1729 45 conicto
1506 -64 1183 -64 conicto
774 -64 533 162 conicto
292 389 292 769 conicto
292 1213 592 1438 conicto
893 1664 1489 1664 conicto
2102 1664 lineto
2102 1712 lineto
2102 2025 1903 2196 conicto
1705 2368 1347 2368 conicto
1119 2368 903 2320 conicto
687 2272 487 2176 conicto
487 2560 lineto
727 2656 952 2704 conicto
1178 2752 1392 2752 conicto
1969 2752 2254 2444 conicto
2539 2137 2539 1513 conicto
end_ol grestore 
gsave 15.258282 1.982840 translate 0.035278 -0.035278 scale
start_ol
2000 2304 moveto
1926 2337 1839 2352 conicto
1753 2368 1648 2368 conicto
1278 2368 1079 2127 conicto
881 1887 881 1437 conicto
881 0 lineto
442 0 lineto
442 2688 lineto
881 2688 lineto
881 2304 lineto
1019 2531 1240 2641 conicto
1461 2752 1777 2752 conicto
1822 2752 1876 2752 conicto
1931 2752 1998 2752 conicto
2000 2304 lineto
end_ol grestore 
gsave 15.510546 1.982840 translate 0.035278 -0.035278 scale
start_ol
2209 2304 moveto
2209 3712 lineto
2646 3712 lineto
2646 0 lineto
2209 0 lineto
2209 384 lineto
2071 157 1861 46 conicto
1651 -64 1356 -64 conicto
874 -64 571 324 conicto
268 712 268 1344 conicto
268 1976 571 2364 conicto
874 2752 1356 2752 conicto
1651 2752 1861 2641 conicto
2071 2531 2209 2304 conicto
720 1344 moveto
720 865 918 592 conicto
1117 320 1463 320 conicto
1810 320 2009 592 conicto
2209 865 2209 1344 conicto
2209 1823 2009 2095 conicto
1810 2368 1463 2368 conicto
1117 2368 918 2095 conicto
720 1823 720 1344 conicto
end_ol grestore 
gsave 15.917665 1.982840 translate 0.035278 -0.035278 scale
start_ol
204 2688 moveto
641 2688 lineto
1188 590 lineto
1731 2688 lineto
2247 2688 lineto
2793 590 lineto
3337 2688 lineto
3774 2688 lineto
3078 0 lineto
2563 0 lineto
1990 2203 lineto
1416 0 lineto
900 0 lineto
204 2688 lineto
end_ol grestore 
gsave 16.439671 1.982840 translate 0.035278 -0.035278 scale
start_ol
1667 1344 moveto
1137 1344 933 1225 conicto
729 1106 729 818 conicto
729 589 882 454 conicto
1035 320 1299 320 conicto
1663 320 1882 572 conicto
2102 825 2102 1244 conicto
2102 1344 lineto
1667 1344 lineto
2539 1513 moveto
2539 0 lineto
2102 0 lineto
2102 384 lineto
1952 154 1729 45 conicto
1506 -64 1183 -64 conicto
774 -64 533 162 conicto
292 389 292 769 conicto
292 1213 592 1438 conicto
893 1664 1489 1664 conicto
2102 1664 lineto
2102 1712 lineto
2102 2025 1903 2196 conicto
1705 2368 1347 2368 conicto
1119 2368 903 2320 conicto
687 2272 487 2176 conicto
487 2560 lineto
727 2656 952 2704 conicto
1178 2752 1392 2752 conicto
1969 2752 2254 2444 conicto
2539 2137 2539 1513 conicto
end_ol grestore 
gsave 16.831801 1.982840 translate 0.035278 -0.035278 scale
start_ol
2000 2304 moveto
1926 2337 1839 2352 conicto
1753 2368 1648 2368 conicto
1278 2368 1079 2127 conicto
881 1887 881 1437 conicto
881 0 lineto
442 0 lineto
442 2688 lineto
881 2688 lineto
881 2304 lineto
1019 2531 1240 2641 conicto
1461 2752 1777 2752 conicto
1822 2752 1876 2752 conicto
1931 2752 1998 2752 conicto
2000 2304 lineto
end_ol grestore 
gsave 17.079062 1.982840 translate 0.035278 -0.035278 scale
start_ol
2734 1480 moveto
2734 1280 lineto
724 1280 lineto
753 811 996 565 conicto
1240 320 1674 320 conicto
1926 320 2162 384 conicto
2399 448 2632 576 conicto
2632 192 lineto
2397 67 2150 1 conicto
1903 -64 1648 -64 conicto
1012 -64 640 309 conicto
268 683 268 1320 conicto
268 1979 621 2365 conicto
974 2752 1572 2752 conicto
2109 2752 2421 2410 conicto
2734 2068 2734 1480 conicto
2297 1600 moveto
2292 1950 2096 2159 conicto
1900 2368 1577 2368 conicto
1212 2368 992 2166 conicto
772 1964 739 1597 conicto
2297 1600 lineto
end_ol grestore 
gsave 17.473688 1.982840 translate 0.035278 -0.035278 scale
start_ol
end_ol grestore 
gsave 17.675995 1.982840 translate 0.035278 -0.035278 scale
start_ol
3133 3264 moveto
3133 2752 lineto
2891 2977 2616 3088 conicto
2342 3200 2033 3200 conicto
1425 3200 1102 2829 conicto
779 2459 779 1759 conicto
779 1061 1102 690 conicto
1425 320 2033 320 conicto
2342 320 2616 431 conicto
2891 543 3133 768 conicto
3133 256 lineto
2881 96 2599 16 conicto
2318 -64 2005 -64 conicto
1199 -64 736 424 conicto
273 913 273 1759 conicto
273 2607 736 3095 conicto
1199 3584 2005 3584 conicto
2323 3584 2604 3504 conicto
2886 3424 3133 3264 conicto
end_ol grestore 
gsave 18.123075 1.982840 translate 0.035278 -0.035278 scale
start_ol
1489 2368 moveto
1138 2368 933 2094 conicto
729 1820 729 1344 conicto
729 868 932 594 conicto
1135 320 1489 320 conicto
1838 320 2042 595 conicto
2247 870 2247 1344 conicto
2247 1816 2042 2092 conicto
1838 2368 1489 2368 conicto
1489 2752 moveto
2059 2752 2384 2378 conicto
2710 2005 2710 1344 conicto
2710 685 2384 310 conicto
2059 -64 1489 -64 conicto
917 -64 592 310 conicto
268 685 268 1344 conicto
268 2005 592 2378 conicto
917 2752 1489 2752 conicto
end_ol grestore 
gsave 18.515204 1.982840 translate 0.035278 -0.035278 scale
start_ol
413 1040 moveto
413 2688 lineto
850 2688 lineto
850 1057 lineto
850 689 997 504 conicto
1145 320 1439 320 conicto
1793 320 1998 541 conicto
2204 763 2204 1145 conicto
2204 2688 lineto
2641 2688 lineto
2641 0 lineto
2204 0 lineto
2204 384 lineto
2045 157 1834 46 conicto
1624 -64 1347 -64 conicto
888 -64 650 217 conicto
413 499 413 1040 conicto
1513 2752 moveto
1513 2752 lineto
end_ol grestore 
gsave 18.919818 1.982840 translate 0.035278 -0.035278 scale
start_ol
2670 1646 moveto
2670 0 lineto
2233 0 lineto
2233 1632 lineto
2233 2001 2085 2184 conicto
1938 2368 1644 2368 conicto
1290 2368 1085 2146 conicto
881 1925 881 1542 conicto
881 0 lineto
442 0 lineto
442 2688 lineto
881 2688 lineto
881 2304 lineto
1038 2529 1250 2640 conicto
1463 2752 1741 2752 conicto
2200 2752 2435 2471 conicto
2670 2191 2670 1646 conicto
end_ol grestore 
gsave 19.324432 1.982840 translate 0.035278 -0.035278 scale
start_ol
891 3456 moveto
891 2688 lineto
1791 2688 lineto
1791 2368 lineto
891 2368 lineto
891 902 lineto
891 572 980 478 conicto
1069 384 1342 384 conicto
1791 384 lineto
1791 0 lineto
1342 0 lineto
836 0 643 194 conicto
451 389 451 902 conicto
451 2368 lineto
131 2368 lineto
131 2688 lineto
451 2688 lineto
451 3456 lineto
891 3456 lineto
end_ol grestore 
gsave 19.574199 1.982840 translate 0.035278 -0.035278 scale
start_ol
2734 1480 moveto
2734 1280 lineto
724 1280 lineto
753 811 996 565 conicto
1240 320 1674 320 conicto
1926 320 2162 384 conicto
2399 448 2632 576 conicto
2632 192 lineto
2397 67 2150 1 conicto
1903 -64 1648 -64 conicto
1012 -64 640 309 conicto
268 683 268 1320 conicto
268 1979 621 2365 conicto
974 2752 1572 2752 conicto
2109 2752 2421 2410 conicto
2734 2068 2734 1480 conicto
2297 1600 moveto
2292 1950 2096 2159 conicto
1900 2368 1577 2368 conicto
1212 2368 992 2166 conicto
772 1964 739 1597 conicto
2297 1600 lineto
end_ol grestore 
gsave 19.968825 1.982840 translate 0.035278 -0.035278 scale
start_ol
2000 2304 moveto
1926 2337 1839 2352 conicto
1753 2368 1648 2368 conicto
1278 2368 1079 2127 conicto
881 1887 881 1437 conicto
881 0 lineto
442 0 lineto
442 2688 lineto
881 2688 lineto
881 2304 lineto
1019 2531 1240 2641 conicto
1461 2752 1777 2752 conicto
1822 2752 1876 2752 conicto
1931 2752 1998 2752 conicto
2000 2304 lineto
end_ol grestore 
gsave 20.231076 1.982840 translate 0.035278 -0.035278 scale
start_ol
2154 2560 moveto
2154 2176 lineto
1969 2272 1769 2320 conicto
1570 2368 1356 2368 conicto
1030 2368 867 2269 conicto
705 2170 705 1972 conicto
705 1821 821 1735 conicto
938 1649 1290 1571 conicto
1439 1538 lineto
1905 1438 2101 1255 conicto
2297 1072 2297 744 conicto
2297 371 2003 153 conicto
1710 -64 1197 -64 conicto
984 -64 752 -16 conicto
521 32 264 128 conicto
264 576 lineto
506 448 741 384 conicto
976 320 1207 320 conicto
1516 320 1682 425 conicto
1848 531 1848 722 conicto
1848 900 1728 994 conicto
1608 1089 1202 1177 conicto
1050 1212 lineto
644 1298 463 1476 conicto
283 1654 283 1964 conicto
283 2341 549 2546 conicto
815 2752 1304 2752 conicto
1546 2752 1760 2704 conicto
1974 2656 2154 2560 conicto
end_ol grestore 
gsave 20.563261 1.982840 translate 0.035278 -0.035278 scale
start_ol
end_ol grestore 
gsave 15.399300 2.782840 translate 0.035278 -0.035278 scale
start_ol
477 3520 moveto
957 3520 lineto
957 0 lineto
477 0 lineto
477 3520 lineto
end_ol grestore 
gsave 15.589122 2.782840 translate 0.035278 -0.035278 scale
start_ol
2670 1646 moveto
2670 0 lineto
2233 0 lineto
2233 1632 lineto
2233 2001 2085 2184 conicto
1938 2368 1644 2368 conicto
1290 2368 1085 2146 conicto
881 1925 881 1542 conicto
881 0 lineto
442 0 lineto
442 2688 lineto
881 2688 lineto
881 2304 lineto
1038 2529 1250 2640 conicto
1463 2752 1741 2752 conicto
2200 2752 2435 2471 conicto
2670 2191 2670 1646 conicto
end_ol grestore 
gsave 15.993736 2.782840 translate 0.035278 -0.035278 scale
start_ol
145 2688 moveto
608 2688 lineto
1439 432 lineto
2271 2688 lineto
2734 2688 lineto
1736 0 lineto
1142 0 lineto
145 2688 lineto
end_ol grestore 
gsave 16.373380 2.782840 translate 0.035278 -0.035278 scale
start_ol
2734 1480 moveto
2734 1280 lineto
724 1280 lineto
753 811 996 565 conicto
1240 320 1674 320 conicto
1926 320 2162 384 conicto
2399 448 2632 576 conicto
2632 192 lineto
2397 67 2150 1 conicto
1903 -64 1648 -64 conicto
1012 -64 640 309 conicto
268 683 268 1320 conicto
268 1979 621 2365 conicto
974 2752 1572 2752 conicto
2109 2752 2421 2410 conicto
2734 2068 2734 1480 conicto
2297 1600 moveto
2292 1950 2096 2159 conicto
1900 2368 1577 2368 conicto
1212 2368 992 2166 conicto
772 1964 739 1597 conicto
2297 1600 lineto
end_ol grestore 
gsave 16.768006 2.782840 translate 0.035278 -0.035278 scale
start_ol
2154 2560 moveto
2154 2176 lineto
1969 2272 1769 2320 conicto
1570 2368 1356 2368 conicto
1030 2368 867 2269 conicto
705 2170 705 1972 conicto
705 1821 821 1735 conicto
938 1649 1290 1571 conicto
1439 1538 lineto
1905 1438 2101 1255 conicto
2297 1072 2297 744 conicto
2297 371 2003 153 conicto
1710 -64 1197 -64 conicto
984 -64 752 -16 conicto
521 32 264 128 conicto
264 576 lineto
506 448 741 384 conicto
976 320 1207 320 conicto
1516 320 1682 425 conicto
1848 531 1848 722 conicto
1848 900 1728 994 conicto
1608 1089 1202 1177 conicto
1050 1212 lineto
644 1298 463 1476 conicto
283 1654 283 1964 conicto
283 2341 549 2546 conicto
815 2752 1304 2752 conicto
1546 2752 1760 2704 conicto
1974 2656 2154 2560 conicto
end_ol grestore 
gsave 17.100190 2.782840 translate 0.035278 -0.035278 scale
start_ol
891 3456 moveto
891 2688 lineto
1791 2688 lineto
1791 2368 lineto
891 2368 lineto
891 902 lineto
891 572 980 478 conicto
1069 384 1342 384 conicto
1791 384 lineto
1791 0 lineto
1342 0 lineto
836 0 643 194 conicto
451 389 451 902 conicto
451 2368 lineto
131 2368 lineto
131 2688 lineto
451 2688 lineto
451 3456 lineto
891 3456 lineto
end_ol grestore 
gsave 17.349957 2.782840 translate 0.035278 -0.035278 scale
start_ol
458 2688 moveto
895 2688 lineto
895 0 lineto
458 0 lineto
458 2688 lineto
458 3712 moveto
895 3712 lineto
895 3136 lineto
458 3136 lineto
458 3712 lineto
end_ol grestore 
gsave 17.527286 2.782840 translate 0.035278 -0.035278 scale
start_ol
2209 1375 moveto
2209 1848 2013 2108 conicto
1817 2368 1463 2368 conicto
1112 2368 916 2108 conicto
720 1848 720 1375 conicto
720 904 916 644 conicto
1112 384 1463 384 conicto
1817 384 2013 644 conicto
2209 904 2209 1375 conicto
2646 347 moveto
2646 -347 2344 -685 conicto
2043 -1024 1420 -1024 conicto
1190 -1024 985 -992 conicto
781 -961 589 -896 conicto
589 -448 lineto
781 -546 969 -593 conicto
1157 -640 1351 -640 conicto
1781 -640 1995 -415 conicto
2209 -190 2209 264 conicto
2209 448 lineto
2074 223 1862 111 conicto
1651 0 1356 0 conicto
867 0 567 376 conicto
268 753 268 1375 conicto
268 1999 567 2375 conicto
867 2752 1356 2752 conicto
1651 2752 1862 2640 conicto
2074 2529 2209 2304 conicto
2209 2688 lineto
2646 2688 lineto
2646 347 lineto
end_ol grestore 
gsave 17.934405 2.782840 translate 0.035278 -0.035278 scale
start_ol
1667 1344 moveto
1137 1344 933 1225 conicto
729 1106 729 818 conicto
729 589 882 454 conicto
1035 320 1299 320 conicto
1663 320 1882 572 conicto
2102 825 2102 1244 conicto
2102 1344 lineto
1667 1344 lineto
2539 1513 moveto
2539 0 lineto
2102 0 lineto
2102 384 lineto
1952 154 1729 45 conicto
1506 -64 1183 -64 conicto
774 -64 533 162 conicto
292 389 292 769 conicto
292 1213 592 1438 conicto
893 1664 1489 1664 conicto
2102 1664 lineto
2102 1712 lineto
2102 2025 1903 2196 conicto
1705 2368 1347 2368 conicto
1119 2368 903 2320 conicto
687 2272 487 2176 conicto
487 2560 lineto
727 2656 952 2704 conicto
1178 2752 1392 2752 conicto
1969 2752 2254 2444 conicto
2539 2137 2539 1513 conicto
end_ol grestore 
gsave 18.326534 2.782840 translate 0.035278 -0.035278 scale
start_ol
891 3456 moveto
891 2688 lineto
1791 2688 lineto
1791 2368 lineto
891 2368 lineto
891 902 lineto
891 572 980 478 conicto
1069 384 1342 384 conicto
1791 384 lineto
1791 0 lineto
1342 0 lineto
836 0 643 194 conicto
451 389 451 902 conicto
451 2368 lineto
131 2368 lineto
131 2688 lineto
451 2688 lineto
451 3456 lineto
891 3456 lineto
end_ol grestore 
gsave 18.576301 2.782840 translate 0.035278 -0.035278 scale
start_ol
458 2688 moveto
895 2688 lineto
895 0 lineto
458 0 lineto
458 2688 lineto
458 3712 moveto
895 3712 lineto
895 3136 lineto
458 3136 lineto
458 3712 lineto
end_ol grestore 
gsave 18.753630 2.782840 translate 0.035278 -0.035278 scale
start_ol
1489 2368 moveto
1138 2368 933 2094 conicto
729 1820 729 1344 conicto
729 868 932 594 conicto
1135 320 1489 320 conicto
1838 320 2042 595 conicto
2247 870 2247 1344 conicto
2247 1816 2042 2092 conicto
1838 2368 1489 2368 conicto
1489 2752 moveto
2059 2752 2384 2378 conicto
2710 2005 2710 1344 conicto
2710 685 2384 310 conicto
2059 -64 1489 -64 conicto
917 -64 592 310 conicto
268 685 268 1344 conicto
268 2005 592 2378 conicto
917 2752 1489 2752 conicto
end_ol grestore 
gsave 19.145759 2.782840 translate 0.035278 -0.035278 scale
start_ol
2670 1646 moveto
2670 0 lineto
2233 0 lineto
2233 1632 lineto
2233 2001 2085 2184 conicto
1938 2368 1644 2368 conicto
1290 2368 1085 2146 conicto
881 1925 881 1542 conicto
881 0 lineto
442 0 lineto
442 2688 lineto
881 2688 lineto
881 2304 lineto
1038 2529 1250 2640 conicto
1463 2752 1741 2752 conicto
2200 2752 2435 2471 conicto
2670 2191 2670 1646 conicto
end_ol grestore 
gsave 15.481800 3.582840 translate 0.035278 -0.035278 scale
start_ol
204 2688 moveto
641 2688 lineto
1188 590 lineto
1731 2688 lineto
2247 2688 lineto
2793 590 lineto
3337 2688 lineto
3774 2688 lineto
3078 0 lineto
2563 0 lineto
1990 2203 lineto
1416 0 lineto
900 0 lineto
204 2688 lineto
end_ol grestore 
gsave 16.003806 3.582840 translate 0.035278 -0.035278 scale
start_ol
458 2688 moveto
895 2688 lineto
895 0 lineto
458 0 lineto
458 2688 lineto
458 3712 moveto
895 3712 lineto
895 3136 lineto
458 3136 lineto
458 3712 lineto
end_ol grestore 
gsave 16.181135 3.582840 translate 0.035278 -0.035278 scale
start_ol
891 3456 moveto
891 2688 lineto
1791 2688 lineto
1791 2368 lineto
891 2368 lineto
891 902 lineto
891 572 980 478 conicto
1069 384 1342 384 conicto
1791 384 lineto
1791 0 lineto
1342 0 lineto
836 0 643 194 conicto
451 389 451 902 conicto
451 2368 lineto
131 2368 lineto
131 2688 lineto
451 2688 lineto
451 3456 lineto
891 3456 lineto
end_ol grestore 
gsave 16.430902 3.582840 translate 0.035278 -0.035278 scale
start_ol
2670 1646 moveto
2670 0 lineto
2233 0 lineto
2233 1632 lineto
2233 2001 2085 2184 conicto
1938 2368 1644 2368 conicto
1290 2368 1085 2146 conicto
881 1925 881 1542 conicto
881 0 lineto
442 0 lineto
442 3712 lineto
881 3712 lineto
881 2304 lineto
1038 2529 1250 2640 conicto
1463 2752 1741 2752 conicto
2200 2752 2435 2471 conicto
2670 2191 2670 1646 conicto
end_ol grestore 
gsave 16.835516 3.582840 translate 0.035278 -0.035278 scale
start_ol
end_ol grestore 
gsave 17.037823 3.582840 translate 0.035278 -0.035278 scale
start_ol
2603 3392 moveto
2603 2944 lineto
2330 3073 2087 3136 conicto
1845 3200 1620 3200 conicto
1228 3200 1015 3052 conicto
803 2904 803 2631 conicto
803 2402 944 2285 conicto
1086 2169 1480 2097 conicto
1769 2039 lineto
2306 1937 2561 1678 conicto
2817 1420 2817 986 conicto
2817 469 2471 202 conicto
2126 -64 1458 -64 conicto
1207 -64 923 0 conicto
639 65 335 192 conicto
335 704 lineto
627 513 907 416 conicto
1188 320 1459 320 conicto
1869 320 2092 485 conicto
2316 650 2316 955 conicto
2316 1221 2155 1371 conicto
1995 1522 1629 1597 conicto
1337 1652 lineto
801 1756 561 1978 conicto
321 2201 321 2597 conicto
321 3056 652 3320 conicto
984 3584 1565 3584 conicto
1815 3584 2073 3536 conicto
2332 3488 2603 3392 conicto
end_ol grestore 
gsave 17.444942 3.582840 translate 0.035278 -0.035278 scale
start_ol
2373 2560 moveto
2373 2176 lineto
2188 2272 2001 2320 conicto
1815 2368 1625 2368 conicto
1199 2368 964 2099 conicto
729 1830 729 1344 conicto
729 858 964 589 conicto
1199 320 1625 320 conicto
1815 320 2001 368 conicto
2188 416 2373 512 conicto
2373 128 lineto
2190 32 1994 -16 conicto
1798 -64 1577 -64 conicto
976 -64 622 316 conicto
268 697 268 1344 conicto
268 2000 625 2376 conicto
983 2752 1606 2752 conicto
1808 2752 2000 2704 conicto
2192 2656 2373 2560 conicto
end_ol grestore 
gsave 17.797111 3.582840 translate 0.035278 -0.035278 scale
start_ol
1489 2368 moveto
1138 2368 933 2094 conicto
729 1820 729 1344 conicto
729 868 932 594 conicto
1135 320 1489 320 conicto
1838 320 2042 595 conicto
2247 870 2247 1344 conicto
2247 1816 2042 2092 conicto
1838 2368 1489 2368 conicto
1489 2752 moveto
2059 2752 2384 2378 conicto
2710 2005 2710 1344 conicto
2710 685 2384 310 conicto
2059 -64 1489 -64 conicto
917 -64 592 310 conicto
268 685 268 1344 conicto
268 2005 592 2378 conicto
917 2752 1489 2752 conicto
end_ol grestore 
gsave 18.189240 3.582840 translate 0.035278 -0.035278 scale
start_ol
2000 2304 moveto
1926 2337 1839 2352 conicto
1753 2368 1648 2368 conicto
1278 2368 1079 2127 conicto
881 1887 881 1437 conicto
881 0 lineto
442 0 lineto
442 2688 lineto
881 2688 lineto
881 2304 lineto
1019 2531 1240 2641 conicto
1461 2752 1777 2752 conicto
1822 2752 1876 2752 conicto
1931 2752 1998 2752 conicto
2000 2304 lineto
end_ol grestore 
gsave 18.436501 3.582840 translate 0.035278 -0.035278 scale
start_ol
2734 1480 moveto
2734 1280 lineto
724 1280 lineto
753 811 996 565 conicto
1240 320 1674 320 conicto
1926 320 2162 384 conicto
2399 448 2632 576 conicto
2632 192 lineto
2397 67 2150 1 conicto
1903 -64 1648 -64 conicto
1012 -64 640 309 conicto
268 683 268 1320 conicto
268 1979 621 2365 conicto
974 2752 1572 2752 conicto
2109 2752 2421 2410 conicto
2734 2068 2734 1480 conicto
2297 1600 moveto
2292 1950 2096 2159 conicto
1900 2368 1577 2368 conicto
1212 2368 992 2166 conicto
772 1964 739 1597 conicto
2297 1600 lineto
end_ol grestore 
gsave 18.831127 3.582840 translate 0.035278 -0.035278 scale
start_ol
238 1536 moveto
1518 1536 lineto
1518 1152 lineto
238 1152 lineto
238 1536 lineto
end_ol grestore 
gsave 19.060910 3.582840 translate 0.035278 -0.035278 scale
start_ol
881 384 moveto
881 -1024 lineto
442 -1024 lineto
442 2688 lineto
881 2688 lineto
881 2304 lineto
1019 2531 1229 2641 conicto
1439 2752 1732 2752 conicto
2216 2752 2519 2364 conicto
2822 1976 2822 1344 conicto
2822 712 2519 324 conicto
2216 -64 1732 -64 conicto
1439 -64 1229 46 conicto
1019 157 881 384 conicto
2368 1344 moveto
2368 1823 2169 2095 conicto
1971 2368 1624 2368 conicto
1278 2368 1079 2095 conicto
881 1823 881 1344 conicto
881 865 1079 592 conicto
1278 320 1624 320 conicto
1971 320 2169 592 conicto
2368 865 2368 1344 conicto
end_ol grestore 
0.100000 slw
[] 0 sd
0 slc
0 slj
0.100000 slw
0 slc
0 slj
[] 0 sd
1.000000 1.000000 1.000000 srgb
n 24.861500 1.724753 m 25.614000 1.399753 25.990250 1.291420 26.742750 1.291420 c 27.495250 1.291420 27.871500 1.399753 28.624000 1.724753 c 28.624000 3.458087 l 27.871500 3.783087 27.495250 3.891420 26.742750 3.891420 c 25.990250 3.891420 25.614000 3.783087 24.861500 3.458087 c 24.861500 1.724753 l ef
0.000000 0.000000 0.000000 srgb
n 24.861500 1.724753 m 25.614000 1.399753 25.990250 1.291420 26.742750 1.291420 c 27.495250 1.291420 27.871500 1.399753 28.624000 1.724753 c 28.624000 3.458087 l 27.871500 3.783087 27.495250 3.891420 26.742750 3.891420 c 25.990250 3.891420 25.614000 3.783087 24.861500 3.458087 c 24.861500 1.724753 l s
0 slc
0 slj
[] 0 sd
n 24.861500 1.724753 m 25.614000 2.049753 25.990250 2.158087 26.742750 2.158087 c 27.495250 2.158087 27.871500 2.049753 28.624000 1.724753 c s
gsave 25.011500 3.008087 translate 0.035278 -0.035278 scale
start_ol
891 3456 moveto
891 2688 lineto
1791 2688 lineto
1791 2368 lineto
891 2368 lineto
891 902 lineto
891 572 980 478 conicto
1069 384 1342 384 conicto
1791 384 lineto
1791 0 lineto
1342 0 lineto
836 0 643 194 conicto
451 389 451 902 conicto
451 2368 lineto
131 2368 lineto
131 2688 lineto
451 2688 lineto
451 3456 lineto
891 3456 lineto
end_ol grestore 
gsave 25.261267 3.008087 translate 0.035278 -0.035278 scale
start_ol
2000 2304 moveto
1926 2337 1839 2352 conicto
1753 2368 1648 2368 conicto
1278 2368 1079 2127 conicto
881 1887 881 1437 conicto
881 0 lineto
442 0 lineto
442 2688 lineto
881 2688 lineto
881 2304 lineto
1019 2531 1240 2641 conicto
1461 2752 1777 2752 conicto
1822 2752 1876 2752 conicto
1931 2752 1998 2752 conicto
2000 2304 lineto
end_ol grestore 
gsave 25.523518 3.008087 translate 0.035278 -0.035278 scale
start_ol
1667 1344 moveto
1137 1344 933 1225 conicto
729 1106 729 818 conicto
729 589 882 454 conicto
1035 320 1299 320 conicto
1663 320 1882 572 conicto
2102 825 2102 1244 conicto
2102 1344 lineto
1667 1344 lineto
2539 1513 moveto
2539 0 lineto
2102 0 lineto
2102 384 lineto
1952 154 1729 45 conicto
1506 -64 1183 -64 conicto
774 -64 533 162 conicto
292 389 292 769 conicto
292 1213 592 1438 conicto
893 1664 1489 1664 conicto
2102 1664 lineto
2102 1712 lineto
2102 2025 1903 2196 conicto
1705 2368 1347 2368 conicto
1119 2368 903 2320 conicto
687 2272 487 2176 conicto
487 2560 lineto
727 2656 952 2704 conicto
1178 2752 1392 2752 conicto
1969 2752 2254 2444 conicto
2539 2137 2539 1513 conicto
end_ol grestore 
gsave 25.915647 3.008087 translate 0.035278 -0.035278 scale
start_ol
2373 2560 moveto
2373 2176 lineto
2188 2272 2001 2320 conicto
1815 2368 1625 2368 conicto
1199 2368 964 2099 conicto
729 1830 729 1344 conicto
729 858 964 589 conicto
1199 320 1625 320 conicto
1815 320 2001 368 conicto
2188 416 2373 512 conicto
2373 128 lineto
2190 32 1994 -16 conicto
1798 -64 1577 -64 conicto
976 -64 622 316 conicto
268 697 268 1344 conicto
268 2000 625 2376 conicto
983 2752 1606 2752 conicto
1808 2752 2000 2704 conicto
2192 2656 2373 2560 conicto
end_ol grestore 
gsave 26.267816 3.008087 translate 0.035278 -0.035278 scale
start_ol
2734 1480 moveto
2734 1280 lineto
724 1280 lineto
753 811 996 565 conicto
1240 320 1674 320 conicto
1926 320 2162 384 conicto
2399 448 2632 576 conicto
2632 192 lineto
2397 67 2150 1 conicto
1903 -64 1648 -64 conicto
1012 -64 640 309 conicto
268 683 268 1320 conicto
268 1979 621 2365 conicto
974 2752 1572 2752 conicto
2109 2752 2421 2410 conicto
2734 2068 2734 1480 conicto
2297 1600 moveto
2292 1950 2096 2159 conicto
1900 2368 1577 2368 conicto
1212 2368 992 2166 conicto
772 1964 739 1597 conicto
2297 1600 lineto
end_ol grestore 
gsave 26.662442 3.008087 translate 0.035278 -0.035278 scale
start_ol
2154 2560 moveto
2154 2176 lineto
1969 2272 1769 2320 conicto
1570 2368 1356 2368 conicto
1030 2368 867 2269 conicto
705 2170 705 1972 conicto
705 1821 821 1735 conicto
938 1649 1290 1571 conicto
1439 1538 lineto
1905 1438 2101 1255 conicto
2297 1072 2297 744 conicto
2297 371 2003 153 conicto
1710 -64 1197 -64 conicto
984 -64 752 -16 conicto
521 32 264 128 conicto
264 576 lineto
506 448 741 384 conicto
976 320 1207 320 conicto
1516 320 1682 425 conicto
1848 531 1848 722 conicto
1848 900 1728 994 conicto
1608 1089 1202 1177 conicto
1050 1212 lineto
644 1298 463 1476 conicto
283 1654 283 1964 conicto
283 2341 549 2546 conicto
815 2752 1304 2752 conicto
1546 2752 1760 2704 conicto
1974 2656 2154 2560 conicto
end_ol grestore 
gsave 26.994626 3.008087 translate 0.035278 -0.035278 scale
start_ol
520 576 moveto
1021 576 lineto
1021 0 lineto
520 0 lineto
520 576 lineto
end_ol grestore 
gsave 27.196934 3.008087 translate 0.035278 -0.035278 scale
start_ol
1489 2368 moveto
1138 2368 933 2094 conicto
729 1820 729 1344 conicto
729 868 932 594 conicto
1135 320 1489 320 conicto
1838 320 2042 595 conicto
2247 870 2247 1344 conicto
2247 1816 2042 2092 conicto
1838 2368 1489 2368 conicto
1489 2752 moveto
2059 2752 2384 2378 conicto
2710 2005 2710 1344 conicto
2710 685 2384 310 conicto
2059 -64 1489 -64 conicto
917 -64 592 310 conicto
268 685 268 1344 conicto
268 2005 592 2378 conicto
917 2752 1489 2752 conicto
end_ol grestore 
gsave 27.589063 3.008087 translate 0.035278 -0.035278 scale
start_ol
891 3456 moveto
891 2688 lineto
1791 2688 lineto
1791 2368 lineto
891 2368 lineto
891 902 lineto
891 572 980 478 conicto
1069 384 1342 384 conicto
1791 384 lineto
1791 0 lineto
1342 0 lineto
836 0 643 194 conicto
451 389 451 902 conicto
451 2368 lineto
131 2368 lineto
131 2688 lineto
451 2688 lineto
451 3456 lineto
891 3456 lineto
end_ol grestore 
gsave 27.838829 3.008087 translate 0.035278 -0.035278 scale
start_ol
1805 3712 moveto
1805 3328 lineto
1387 3328 lineto
1152 3328 1060 3237 conicto
969 3147 969 2912 conicto
969 2688 lineto
1689 2688 lineto
1689 2368 lineto
969 2368 lineto
969 0 lineto
530 0 lineto
530 2368 lineto
112 2368 lineto
112 2688 lineto
530 2688 lineto
530 2864 lineto
530 3307 736 3509 conicto
943 3712 1392 3712 conicto
1805 3712 lineto
end_ol grestore 
gsave 28.063618 3.008087 translate 0.035278 -0.035278 scale
start_ol
933 384 moveto
2608 384 lineto
2608 0 lineto
356 0 lineto
356 384 lineto
629 668 1100 1146 conicto
1572 1625 1694 1763 conicto
1924 2023 2015 2203 conicto
2107 2384 2107 2558 conicto
2107 2842 1908 3021 conicto
1710 3200 1392 3200 conicto
1166 3200 915 3104 conicto
665 3009 380 2816 conicto
380 3328 lineto
670 3455 921 3519 conicto
1173 3584 1382 3584 conicto
1933 3584 2261 3309 conicto
2589 3034 2589 2574 conicto
2589 2356 2507 2160 conicto
2425 1965 2209 1700 conicto
2149 1631 1831 1302 conicto
1513 974 933 384 conicto
end_ol grestore 
0.100000 slw
[] 0 sd
0 slc
0 slj
0.100000 slw
0 slc
0 slj
[] 0 sd
0.937255 0.890196 0.800000 srgb
n 15.969300 9.037690 m 22.082180 9.037690 l 22.082180 11.511110 l 15.969300 11.511110 l ef
0.000000 0.000000 0.000000 srgb
n 15.969300 9.037690 m 22.082180 9.037690 l 22.082180 11.511110 l 15.969300 11.511110 l cp s
0 slc
0 slj
[] 0 sd
n 16.580588 9.037690 m 16.580588 11.511110 l s
0 slc
0 slj
[] 0 sd
n 21.470892 9.037690 m 21.470892 11.511110 l s
gsave 17.644490 10.474400 translate 0.035278 -0.035278 scale
start_ol
2159 1632 moveto
2313 1581 2459 1413 conicto
2606 1245 2753 952 conicto
3240 0 lineto
2724 0 lineto
2271 893 lineto
2095 1243 1930 1357 conicto
1765 1472 1480 1472 conicto
957 1472 lineto
957 0 lineto
477 0 lineto
477 3520 lineto
1560 3520 lineto
2168 3520 2467 3265 conicto
2767 3010 2767 2496 conicto
2767 2161 2611 1939 conicto
2456 1718 2159 1632 conicto
957 3136 moveto
957 1856 lineto
1560 1856 lineto
1907 1856 2084 2019 conicto
2261 2182 2261 2498 conicto
2261 2815 2084 2975 conicto
1907 3136 1560 3136 conicto
957 3136 lineto
end_ol grestore 
gsave 18.089073 10.474400 translate 0.035278 -0.035278 scale
start_ol
end_ol grestore 
gsave 18.291380 10.474400 translate 0.035278 -0.035278 scale
start_ol
2154 2560 moveto
2154 2176 lineto
1969 2272 1769 2320 conicto
1570 2368 1356 2368 conicto
1030 2368 867 2269 conicto
705 2170 705 1972 conicto
705 1821 821 1735 conicto
938 1649 1290 1571 conicto
1439 1538 lineto
1905 1438 2101 1255 conicto
2297 1072 2297 744 conicto
2297 371 2003 153 conicto
1710 -64 1197 -64 conicto
984 -64 752 -16 conicto
521 32 264 128 conicto
264 576 lineto
506 448 741 384 conicto
976 320 1207 320 conicto
1516 320 1682 425 conicto
1848 531 1848 722 conicto
1848 900 1728 994 conicto
1608 1089 1202 1177 conicto
1050 1212 lineto
644 1298 463 1476 conicto
283 1654 283 1964 conicto
283 2341 549 2546 conicto
815 2752 1304 2752 conicto
1546 2752 1760 2704 conicto
1974 2656 2154 2560 conicto
end_ol grestore 
gsave 18.623564 10.474400 translate 0.035278 -0.035278 scale
start_ol
2373 2560 moveto
2373 2176 lineto
2188 2272 2001 2320 conicto
1815 2368 1625 2368 conicto
1199 2368 964 2099 conicto
729 1830 729 1344 conicto
729 858 964 589 conicto
1199 320 1625 320 conicto
1815 320 2001 368 conicto
2188 416 2373 512 conicto
2373 128 lineto
2190 32 1994 -16 conicto
1798 -64 1577 -64 conicto
976 -64 622 316 conicto
268 697 268 1344 conicto
268 2000 625 2376 conicto
983 2752 1606 2752 conicto
1808 2752 2000 2704 conicto
2192 2656 2373 2560 conicto
end_ol grestore 
gsave 18.975733 10.474400 translate 0.035278 -0.035278 scale
start_ol
2000 2304 moveto
1926 2337 1839 2352 conicto
1753 2368 1648 2368 conicto
1278 2368 1079 2127 conicto
881 1887 881 1437 conicto
881 0 lineto
442 0 lineto
442 2688 lineto
881 2688 lineto
881 2304 lineto
1019 2531 1240 2641 conicto
1461 2752 1777 2752 conicto
1822 2752 1876 2752 conicto
1931 2752 1998 2752 conicto
2000 2304 lineto
end_ol grestore 
gsave 19.237984 10.474400 translate 0.035278 -0.035278 scale
start_ol
458 2688 moveto
895 2688 lineto
895 0 lineto
458 0 lineto
458 2688 lineto
458 3712 moveto
895 3712 lineto
895 3136 lineto
458 3136 lineto
458 3712 lineto
end_ol grestore 
gsave 19.415313 10.474400 translate 0.035278 -0.035278 scale
start_ol
881 384 moveto
881 -1024 lineto
442 -1024 lineto
442 2688 lineto
881 2688 lineto
881 2304 lineto
1019 2531 1229 2641 conicto
1439 2752 1732 2752 conicto
2216 2752 2519 2364 conicto
2822 1976 2822 1344 conicto
2822 712 2519 324 conicto
2216 -64 1732 -64 conicto
1439 -64 1229 46 conicto
1019 157 881 384 conicto
2368 1344 moveto
2368 1823 2169 2095 conicto
1971 2368 1624 2368 conicto
1278 2368 1079 2095 conicto
881 1823 881 1344 conicto
881 865 1079 592 conicto
1278 320 1624 320 conicto
1971 320 2169 592 conicto
2368 865 2368 1344 conicto
end_ol grestore 
gsave 19.822433 10.474400 translate 0.035278 -0.035278 scale
start_ol
891 3456 moveto
891 2688 lineto
1791 2688 lineto
1791 2368 lineto
891 2368 lineto
891 902 lineto
891 572 980 478 conicto
1069 384 1342 384 conicto
1791 384 lineto
1791 0 lineto
1342 0 lineto
836 0 643 194 conicto
451 389 451 902 conicto
451 2368 lineto
131 2368 lineto
131 2688 lineto
451 2688 lineto
451 3456 lineto
891 3456 lineto
end_ol grestore 
gsave 20.072199 10.474400 translate 0.035278 -0.035278 scale
start_ol
2154 2560 moveto
2154 2176 lineto
1969 2272 1769 2320 conicto
1570 2368 1356 2368 conicto
1030 2368 867 2269 conicto
705 2170 705 1972 conicto
705 1821 821 1735 conicto
938 1649 1290 1571 conicto
1439 1538 lineto
1905 1438 2101 1255 conicto
2297 1072 2297 744 conicto
2297 371 2003 153 conicto
1710 -64 1197 -64 conicto
984 -64 752 -16 conicto
521 32 264 128 conicto
264 576 lineto
506 448 741 384 conicto
976 320 1207 320 conicto
1516 320 1682 425 conicto
1848 531 1848 722 conicto
1848 900 1728 994 conicto
1608 1089 1202 1177 conicto
1050 1212 lineto
644 1298 463 1476 conicto
283 1654 283 1964 conicto
283 2341 549 2546 conicto
815 2752 1304 2752 conicto
1546 2752 1760 2704 conicto
1974 2656 2154 2560 conicto
end_ol grestore 
0.100000 slw
[] 0 sd
0 slc
0 slj
0.100000 slw
0 slc
0 slj
[] 0 sd
1.000000 1.000000 1.000000 srgb
n 24.834100 9.307060 m 25.606100 8.944308 25.992100 8.823390 26.764100 8.823390 c 27.536100 8.823390 27.922100 8.944308 28.694100 9.307060 c 28.694100 11.241740 l 27.922100 11.604493 27.536100 11.725410 26.764100 11.725410 c 25.992100 11.725410 25.606100 11.604493 24.834100 11.241740 c 24.834100 9.307060 l ef
0.000000 0.000000 0.000000 srgb
n 24.834100 9.307060 m 25.606100 8.944308 25.992100 8.823390 26.764100 8.823390 c 27.536100 8.823390 27.922100 8.944308 28.694100 9.307060 c 28.694100 11.241740 l 27.922100 11.604493 27.536100 11.725410 26.764100 11.725410 c 25.992100 11.725410 25.606100 11.604493 24.834100 11.241740 c 24.834100 9.307060 l s
0 slc
0 slj
[] 0 sd
n 24.834100 9.307060 m 25.606100 9.669813 25.992100 9.790730 26.764100 9.790730 c 27.536100 9.790730 27.922100 9.669813 28.694100 9.307060 c s
gsave 25.137850 10.716235 translate 0.035278 -0.035278 scale
start_ol
891 3456 moveto
891 2688 lineto
1791 2688 lineto
1791 2368 lineto
891 2368 lineto
891 902 lineto
891 572 980 478 conicto
1069 384 1342 384 conicto
1791 384 lineto
1791 0 lineto
1342 0 lineto
836 0 643 194 conicto
451 389 451 902 conicto
451 2368 lineto
131 2368 lineto
131 2688 lineto
451 2688 lineto
451 3456 lineto
891 3456 lineto
end_ol grestore 
gsave 25.387617 10.716235 translate 0.035278 -0.035278 scale
start_ol
2000 2304 moveto
1926 2337 1839 2352 conicto
1753 2368 1648 2368 conicto
1278 2368 1079 2127 conicto
881 1887 881 1437 conicto
881 0 lineto
442 0 lineto
442 2688 lineto
881 2688 lineto
881 2304 lineto
1019 2531 1240 2641 conicto
1461 2752 1777 2752 conicto
1822 2752 1876 2752 conicto
1931 2752 1998 2752 conicto
2000 2304 lineto
end_ol grestore 
gsave 25.649868 10.716235 translate 0.035278 -0.035278 scale
start_ol
1667 1344 moveto
1137 1344 933 1225 conicto
729 1106 729 818 conicto
729 589 882 454 conicto
1035 320 1299 320 conicto
1663 320 1882 572 conicto
2102 825 2102 1244 conicto
2102 1344 lineto
1667 1344 lineto
2539 1513 moveto
2539 0 lineto
2102 0 lineto
2102 384 lineto
1952 154 1729 45 conicto
1506 -64 1183 -64 conicto
774 -64 533 162 conicto
292 389 292 769 conicto
292 1213 592 1438 conicto
893 1664 1489 1664 conicto
2102 1664 lineto
2102 1712 lineto
2102 2025 1903 2196 conicto
1705 2368 1347 2368 conicto
1119 2368 903 2320 conicto
687 2272 487 2176 conicto
487 2560 lineto
727 2656 952 2704 conicto
1178 2752 1392 2752 conicto
1969 2752 2254 2444 conicto
2539 2137 2539 1513 conicto
end_ol grestore 
gsave 26.041997 10.716235 translate 0.035278 -0.035278 scale
start_ol
2373 2560 moveto
2373 2176 lineto
2188 2272 2001 2320 conicto
1815 2368 1625 2368 conicto
1199 2368 964 2099 conicto
729 1830 729 1344 conicto
729 858 964 589 conicto
1199 320 1625 320 conicto
1815 320 2001 368 conicto
2188 416 2373 512 conicto
2373 128 lineto
2190 32 1994 -16 conicto
1798 -64 1577 -64 conicto
976 -64 622 316 conicto
268 697 268 1344 conicto
268 2000 625 2376 conicto
983 2752 1606 2752 conicto
1808 2752 2000 2704 conicto
2192 2656 2373 2560 conicto
end_ol grestore 
gsave 26.394166 10.716235 translate 0.035278 -0.035278 scale
start_ol
2734 1480 moveto
2734 1280 lineto
724 1280 lineto
753 811 996 565 conicto
1240 320 1674 320 conicto
1926 320 2162 384 conicto
2399 448 2632 576 conicto
2632 192 lineto
2397 67 2150 1 conicto
1903 -64 1648 -64 conicto
1012 -64 640 309 conicto
268 683 268 1320 conicto
268 1979 621 2365 conicto
974 2752 1572 2752 conicto
2109 2752 2421 2410 conicto
2734 2068 2734 1480 conicto
2297 1600 moveto
2292 1950 2096 2159 conicto
1900 2368 1577 2368 conicto
1212 2368 992 2166 conicto
772 1964 739 1597 conicto
2297 1600 lineto
end_ol grestore 
gsave 26.788792 10.716235 translate 0.035278 -0.035278 scale
start_ol
2154 2560 moveto
2154 2176 lineto
1969 2272 1769 2320 conicto
1570 2368 1356 2368 conicto
1030 2368 867 2269 conicto
705 2170 705 1972 conicto
705 1821 821 1735 conicto
938 1649 1290 1571 conicto
1439 1538 lineto
1905 1438 2101 1255 conicto
2297 1072 2297 744 conicto
2297 371 2003 153 conicto
1710 -64 1197 -64 conicto
984 -64 752 -16 conicto
521 32 264 128 conicto
264 576 lineto
506 448 741 384 conicto
976 320 1207 320 conicto
1516 320 1682 425 conicto
1848 531 1848 722 conicto
1848 900 1728 994 conicto
1608 1089 1202 1177 conicto
1050 1212 lineto
644 1298 463 1476 conicto
283 1654 283 1964 conicto
283 2341 549 2546 conicto
815 2752 1304 2752 conicto
1546 2752 1760 2704 conicto
1974 2656 2154 2560 conicto
end_ol grestore 
gsave 27.120976 10.716235 translate 0.035278 -0.035278 scale
start_ol
520 576 moveto
1021 576 lineto
1021 0 lineto
520 0 lineto
520 576 lineto
end_ol grestore 
gsave 27.323284 10.716235 translate 0.035278 -0.035278 scale
start_ol
2373 2560 moveto
2373 2176 lineto
2188 2272 2001 2320 conicto
1815 2368 1625 2368 conicto
1199 2368 964 2099 conicto
729 1830 729 1344 conicto
729 858 964 589 conicto
1199 320 1625 320 conicto
1815 320 2001 368 conicto
2188 416 2373 512 conicto
2373 128 lineto
2190 32 1994 -16 conicto
1798 -64 1577 -64 conicto
976 -64 622 316 conicto
268 697 268 1344 conicto
268 2000 625 2376 conicto
983 2752 1606 2752 conicto
1808 2752 2000 2704 conicto
2192 2656 2373 2560 conicto
end_ol grestore 
gsave 27.675452 10.716235 translate 0.035278 -0.035278 scale
start_ol
2154 2560 moveto
2154 2176 lineto
1969 2272 1769 2320 conicto
1570 2368 1356 2368 conicto
1030 2368 867 2269 conicto
705 2170 705 1972 conicto
705 1821 821 1735 conicto
938 1649 1290 1571 conicto
1439 1538 lineto
1905 1438 2101 1255 conicto
2297 1072 2297 744 conicto
2297 371 2003 153 conicto
1710 -64 1197 -64 conicto
984 -64 752 -16 conicto
521 32 264 128 conicto
264 576 lineto
506 448 741 384 conicto
976 320 1207 320 conicto
1516 320 1682 425 conicto
1848 531 1848 722 conicto
1848 900 1728 994 conicto
1608 1089 1202 1177 conicto
1050 1212 lineto
644 1298 463 1476 conicto
283 1654 283 1964 conicto
283 2341 549 2546 conicto
815 2752 1304 2752 conicto
1546 2752 1760 2704 conicto
1974 2656 2154 2560 conicto
end_ol grestore 
gsave 28.007637 10.716235 translate 0.035278 -0.035278 scale
start_ol
145 2688 moveto
608 2688 lineto
1439 432 lineto
2271 2688 lineto
2734 2688 lineto
1736 0 lineto
1142 0 lineto
145 2688 lineto
end_ol grestore 
0.100000 slw
[] 0 sd
0 slc
0 slj
0.100000 slw
0 slc
0 slj
[] 0 sd
0.749020 0.964706 0.952941 srgb
n 8.154592 8.924400 m 12.283758 8.924400 l 12.853878 8.924400 13.316050 9.528816 13.316050 10.274400 c 13.316050 11.019985 12.853878 11.624400 12.283758 11.624400 c 8.154592 11.624400 l 7.584472 11.624400 7.122300 11.019985 7.122300 10.274400 c 7.122300 9.528816 7.584472 8.924400 8.154592 8.924400 c ef
0.000000 0.000000 0.000000 srgb
n 8.154592 8.924400 m 12.283758 8.924400 l 12.853878 8.924400 13.316050 9.528816 13.316050 10.274400 c 13.316050 11.019985 12.853878 11.624400 12.283758 11.624400 c 8.154592 11.624400 l 7.584472 11.624400 7.122300 11.019985 7.122300 10.274400 c 7.122300 9.528816 7.584472 8.924400 8.154592 8.924400 c s
gsave 8.329175 9.674400 translate 0.035278 -0.035278 scale
start_ol
1663 3047 moveto
1012 1280 lineto
2316 1280 lineto
1663 3047 lineto
1392 3520 moveto
1936 3520 lineto
3287 0 lineto
2788 0 lineto
2465 896 lineto
867 896 lineto
544 0 lineto
38 0 lineto
1392 3520 lineto
end_ol grestore 
gsave 8.766267 9.674400 translate 0.035278 -0.035278 scale
start_ol
881 384 moveto
881 -1024 lineto
442 -1024 lineto
442 2688 lineto
881 2688 lineto
881 2304 lineto
1019 2531 1229 2641 conicto
1439 2752 1732 2752 conicto
2216 2752 2519 2364 conicto
2822 1976 2822 1344 conicto
2822 712 2519 324 conicto
2216 -64 1732 -64 conicto
1439 -64 1229 46 conicto
1019 157 881 384 conicto
2368 1344 moveto
2368 1823 2169 2095 conicto
1971 2368 1624 2368 conicto
1278 2368 1079 2095 conicto
881 1823 881 1344 conicto
881 865 1079 592 conicto
1278 320 1624 320 conicto
1971 320 2169 592 conicto
2368 865 2368 1344 conicto
end_ol grestore 
gsave 9.173386 9.674400 translate 0.035278 -0.035278 scale
start_ol
881 384 moveto
881 -1024 lineto
442 -1024 lineto
442 2688 lineto
881 2688 lineto
881 2304 lineto
1019 2531 1229 2641 conicto
1439 2752 1732 2752 conicto
2216 2752 2519 2364 conicto
2822 1976 2822 1344 conicto
2822 712 2519 324 conicto
2216 -64 1732 -64 conicto
1439 -64 1229 46 conicto
1019 157 881 384 conicto
2368 1344 moveto
2368 1823 2169 2095 conicto
1971 2368 1624 2368 conicto
1278 2368 1079 2095 conicto
881 1823 881 1344 conicto
881 865 1079 592 conicto
1278 320 1624 320 conicto
1971 320 2169 592 conicto
2368 865 2368 1344 conicto
end_ol grestore 
gsave 9.580505 9.674400 translate 0.035278 -0.035278 scale
start_ol
458 3712 moveto
895 3712 lineto
895 0 lineto
458 0 lineto
458 3712 lineto
end_ol grestore 
gsave 9.757834 9.674400 translate 0.035278 -0.035278 scale
start_ol
458 2688 moveto
895 2688 lineto
895 0 lineto
458 0 lineto
458 2688 lineto
458 3712 moveto
895 3712 lineto
895 3136 lineto
458 3136 lineto
458 3712 lineto
end_ol grestore 
gsave 9.935163 9.674400 translate 0.035278 -0.035278 scale
start_ol
2373 2560 moveto
2373 2176 lineto
2188 2272 2001 2320 conicto
1815 2368 1625 2368 conicto
1199 2368 964 2099 conicto
729 1830 729 1344 conicto
729 858 964 589 conicto
1199 320 1625 320 conicto
1815 320 2001 368 conicto
2188 416 2373 512 conicto
2373 128 lineto
2190 32 1994 -16 conicto
1798 -64 1577 -64 conicto
976 -64 622 316 conicto
268 697 268 1344 conicto
268 2000 625 2376 conicto
983 2752 1606 2752 conicto
1808 2752 2000 2704 conicto
2192 2656 2373 2560 conicto
end_ol grestore 
gsave 10.287331 9.674400 translate 0.035278 -0.035278 scale
start_ol
1667 1344 moveto
1137 1344 933 1225 conicto
729 1106 729 818 conicto
729 589 882 454 conicto
1035 320 1299 320 conicto
1663 320 1882 572 conicto
2102 825 2102 1244 conicto
2102 1344 lineto
1667 1344 lineto
2539 1513 moveto
2539 0 lineto
2102 0 lineto
2102 384 lineto
1952 154 1729 45 conicto
1506 -64 1183 -64 conicto
774 -64 533 162 conicto
292 389 292 769 conicto
292 1213 592 1438 conicto
893 1664 1489 1664 conicto
2102 1664 lineto
2102 1712 lineto
2102 2025 1903 2196 conicto
1705 2368 1347 2368 conicto
1119 2368 903 2320 conicto
687 2272 487 2176 conicto
487 2560 lineto
727 2656 952 2704 conicto
1178 2752 1392 2752 conicto
1969 2752 2254 2444 conicto
2539 2137 2539 1513 conicto
end_ol grestore 
gsave 10.679460 9.674400 translate 0.035278 -0.035278 scale
start_ol
891 3456 moveto
891 2688 lineto
1791 2688 lineto
1791 2368 lineto
891 2368 lineto
891 902 lineto
891 572 980 478 conicto
1069 384 1342 384 conicto
1791 384 lineto
1791 0 lineto
1342 0 lineto
836 0 643 194 conicto
451 389 451 902 conicto
451 2368 lineto
131 2368 lineto
131 2688 lineto
451 2688 lineto
451 3456 lineto
891 3456 lineto
end_ol grestore 
gsave 10.929227 9.674400 translate 0.035278 -0.035278 scale
start_ol
458 2688 moveto
895 2688 lineto
895 0 lineto
458 0 lineto
458 2688 lineto
458 3712 moveto
895 3712 lineto
895 3136 lineto
458 3136 lineto
458 3712 lineto
end_ol grestore 
gsave 11.106556 9.674400 translate 0.035278 -0.035278 scale
start_ol
1489 2368 moveto
1138 2368 933 2094 conicto
729 1820 729 1344 conicto
729 868 932 594 conicto
1135 320 1489 320 conicto
1838 320 2042 595 conicto
2247 870 2247 1344 conicto
2247 1816 2042 2092 conicto
1838 2368 1489 2368 conicto
1489 2752 moveto
2059 2752 2384 2378 conicto
2710 2005 2710 1344 conicto
2710 685 2384 310 conicto
2059 -64 1489 -64 conicto
917 -64 592 310 conicto
268 685 268 1344 conicto
268 2005 592 2378 conicto
917 2752 1489 2752 conicto
end_ol grestore 
gsave 11.498685 9.674400 translate 0.035278 -0.035278 scale
start_ol
2670 1646 moveto
2670 0 lineto
2233 0 lineto
2233 1632 lineto
2233 2001 2085 2184 conicto
1938 2368 1644 2368 conicto
1290 2368 1085 2146 conicto
881 1925 881 1542 conicto
881 0 lineto
442 0 lineto
442 2688 lineto
881 2688 lineto
881 2304 lineto
1038 2529 1250 2640 conicto
1463 2752 1741 2752 conicto
2200 2752 2435 2471 conicto
2670 2191 2670 1646 conicto
end_ol grestore 
gsave 11.903299 9.674400 translate 0.035278 -0.035278 scale
start_ol
end_ol grestore 
gsave 8.795425 10.474400 translate 0.035278 -0.035278 scale
start_ol
957 1728 moveto
957 384 lineto
1727 384 lineto
2114 384 2300 550 conicto
2487 716 2487 1057 conicto
2487 1401 2300 1564 conicto
2114 1728 1727 1728 conicto
957 1728 lineto
957 3136 moveto
957 2112 lineto
1667 2112 lineto
2019 2112 2191 2238 conicto
2363 2365 2363 2624 conicto
2363 2881 2191 3008 conicto
2019 3136 1667 3136 conicto
957 3136 lineto
477 3520 moveto
1703 3520 lineto
2251 3520 2548 3300 conicto
2845 3080 2845 2674 conicto
2845 2360 2693 2174 conicto
2541 1989 2247 1943 conicto
2601 1866 2797 1621 conicto
2993 1376 2993 1009 conicto
2993 526 2670 263 conicto
2347 0 1750 0 conicto
477 0 lineto
477 3520 lineto
end_ol grestore 
gsave 9.235014 10.474400 translate 0.035278 -0.035278 scale
start_ol
2734 1480 moveto
2734 1280 lineto
724 1280 lineto
753 811 996 565 conicto
1240 320 1674 320 conicto
1926 320 2162 384 conicto
2399 448 2632 576 conicto
2632 192 lineto
2397 67 2150 1 conicto
1903 -64 1648 -64 conicto
1012 -64 640 309 conicto
268 683 268 1320 conicto
268 1979 621 2365 conicto
974 2752 1572 2752 conicto
2109 2752 2421 2410 conicto
2734 2068 2734 1480 conicto
2297 1600 moveto
2292 1950 2096 2159 conicto
1900 2368 1577 2368 conicto
1212 2368 992 2166 conicto
772 1964 739 1597 conicto
2297 1600 lineto
end_ol grestore 
gsave 9.629640 10.474400 translate 0.035278 -0.035278 scale
start_ol
2670 1646 moveto
2670 0 lineto
2233 0 lineto
2233 1632 lineto
2233 2001 2085 2184 conicto
1938 2368 1644 2368 conicto
1290 2368 1085 2146 conicto
881 1925 881 1542 conicto
881 0 lineto
442 0 lineto
442 3712 lineto
881 3712 lineto
881 2304 lineto
1038 2529 1250 2640 conicto
1463 2752 1741 2752 conicto
2200 2752 2435 2471 conicto
2670 2191 2670 1646 conicto
end_ol grestore 
gsave 10.034254 10.474400 translate 0.035278 -0.035278 scale
start_ol
1667 1344 moveto
1137 1344 933 1225 conicto
729 1106 729 818 conicto
729 589 882 454 conicto
1035 320 1299 320 conicto
1663 320 1882 572 conicto
2102 825 2102 1244 conicto
2102 1344 lineto
1667 1344 lineto
2539 1513 moveto
2539 0 lineto
2102 0 lineto
2102 384 lineto
1952 154 1729 45 conicto
1506 -64 1183 -64 conicto
774 -64 533 162 conicto
292 389 292 769 conicto
292 1213 592 1438 conicto
893 1664 1489 1664 conicto
2102 1664 lineto
2102 1712 lineto
2102 2025 1903 2196 conicto
1705 2368 1347 2368 conicto
1119 2368 903 2320 conicto
687 2272 487 2176 conicto
487 2560 lineto
727 2656 952 2704 conicto
1178 2752 1392 2752 conicto
1969 2752 2254 2444 conicto
2539 2137 2539 1513 conicto
end_ol grestore 
gsave 10.426383 10.474400 translate 0.035278 -0.035278 scale
start_ol
145 2688 moveto
608 2688 lineto
1439 432 lineto
2271 2688 lineto
2734 2688 lineto
1736 0 lineto
1142 0 lineto
145 2688 lineto
end_ol grestore 
gsave 10.806027 10.474400 translate 0.035278 -0.035278 scale
start_ol
458 2688 moveto
895 2688 lineto
895 0 lineto
458 0 lineto
458 2688 lineto
458 3712 moveto
895 3712 lineto
895 3136 lineto
458 3136 lineto
458 3712 lineto
end_ol grestore 
gsave 10.983356 10.474400 translate 0.035278 -0.035278 scale
start_ol
1489 2368 moveto
1138 2368 933 2094 conicto
729 1820 729 1344 conicto
729 868 932 594 conicto
1135 320 1489 320 conicto
1838 320 2042 595 conicto
2247 870 2247 1344 conicto
2247 1816 2042 2092 conicto
1838 2368 1489 2368 conicto
1489 2752 moveto
2059 2752 2384 2378 conicto
2710 2005 2710 1344 conicto
2710 685 2384 310 conicto
2059 -64 1489 -64 conicto
917 -64 592 310 conicto
268 685 268 1344 conicto
268 2005 592 2378 conicto
917 2752 1489 2752 conicto
end_ol grestore 
gsave 11.375485 10.474400 translate 0.035278 -0.035278 scale
start_ol
2000 2304 moveto
1926 2337 1839 2352 conicto
1753 2368 1648 2368 conicto
1278 2368 1079 2127 conicto
881 1887 881 1437 conicto
881 0 lineto
442 0 lineto
442 2688 lineto
881 2688 lineto
881 2304 lineto
1019 2531 1240 2641 conicto
1461 2752 1777 2752 conicto
1822 2752 1876 2752 conicto
1931 2752 1998 2752 conicto
2000 2304 lineto
end_ol grestore 
gsave 8.555425 11.274400 translate 0.035278 -0.035278 scale
start_ol
957 3136 moveto
957 384 lineto
1537 384 lineto
2271 384 2611 716 conicto
2952 1048 2952 1764 conicto
2952 2475 2611 2805 conicto
2271 3136 1537 3136 conicto
957 3136 lineto
477 3520 moveto
1463 3520 lineto
2494 3520 2976 3094 conicto
3458 2669 3458 1764 conicto
3458 853 2973 426 conicto
2489 0 1463 0 conicto
477 0 lineto
477 3520 lineto
end_ol grestore 
gsave 9.047459 11.274400 translate 0.035278 -0.035278 scale
start_ol
2734 1480 moveto
2734 1280 lineto
724 1280 lineto
753 811 996 565 conicto
1240 320 1674 320 conicto
1926 320 2162 384 conicto
2399 448 2632 576 conicto
2632 192 lineto
2397 67 2150 1 conicto
1903 -64 1648 -64 conicto
1012 -64 640 309 conicto
268 683 268 1320 conicto
268 1979 621 2365 conicto
974 2752 1572 2752 conicto
2109 2752 2421 2410 conicto
2734 2068 2734 1480 conicto
2297 1600 moveto
2292 1950 2096 2159 conicto
1900 2368 1577 2368 conicto
1212 2368 992 2166 conicto
772 1964 739 1597 conicto
2297 1600 lineto
end_ol grestore 
gsave 9.442085 11.274400 translate 0.035278 -0.035278 scale
start_ol
2154 2560 moveto
2154 2176 lineto
1969 2272 1769 2320 conicto
1570 2368 1356 2368 conicto
1030 2368 867 2269 conicto
705 2170 705 1972 conicto
705 1821 821 1735 conicto
938 1649 1290 1571 conicto
1439 1538 lineto
1905 1438 2101 1255 conicto
2297 1072 2297 744 conicto
2297 371 2003 153 conicto
1710 -64 1197 -64 conicto
984 -64 752 -16 conicto
521 32 264 128 conicto
264 576 lineto
506 448 741 384 conicto
976 320 1207 320 conicto
1516 320 1682 425 conicto
1848 531 1848 722 conicto
1848 900 1728 994 conicto
1608 1089 1202 1177 conicto
1050 1212 lineto
644 1298 463 1476 conicto
283 1654 283 1964 conicto
283 2341 549 2546 conicto
815 2752 1304 2752 conicto
1546 2752 1760 2704 conicto
1974 2656 2154 2560 conicto
end_ol grestore 
gsave 9.774269 11.274400 translate 0.035278 -0.035278 scale
start_ol
2373 2560 moveto
2373 2176 lineto
2188 2272 2001 2320 conicto
1815 2368 1625 2368 conicto
1199 2368 964 2099 conicto
729 1830 729 1344 conicto
729 858 964 589 conicto
1199 320 1625 320 conicto
1815 320 2001 368 conicto
2188 416 2373 512 conicto
2373 128 lineto
2190 32 1994 -16 conicto
1798 -64 1577 -64 conicto
976 -64 622 316 conicto
268 697 268 1344 conicto
268 2000 625 2376 conicto
983 2752 1606 2752 conicto
1808 2752 2000 2704 conicto
2192 2656 2373 2560 conicto
end_ol grestore 
gsave 10.126438 11.274400 translate 0.035278 -0.035278 scale
start_ol
2000 2304 moveto
1926 2337 1839 2352 conicto
1753 2368 1648 2368 conicto
1278 2368 1079 2127 conicto
881 1887 881 1437 conicto
881 0 lineto
442 0 lineto
442 2688 lineto
881 2688 lineto
881 2304 lineto
1019 2531 1240 2641 conicto
1461 2752 1777 2752 conicto
1822 2752 1876 2752 conicto
1931 2752 1998 2752 conicto
2000 2304 lineto
end_ol grestore 
gsave 10.388690 11.274400 translate 0.035278 -0.035278 scale
start_ol
458 2688 moveto
895 2688 lineto
895 0 lineto
458 0 lineto
458 2688 lineto
458 3712 moveto
895 3712 lineto
895 3136 lineto
458 3136 lineto
458 3712 lineto
end_ol grestore 
gsave 10.566019 11.274400 translate 0.035278 -0.035278 scale
start_ol
881 384 moveto
881 -1024 lineto
442 -1024 lineto
442 2688 lineto
881 2688 lineto
881 2304 lineto
1019 2531 1229 2641 conicto
1439 2752 1732 2752 conicto
2216 2752 2519 2364 conicto
2822 1976 2822 1344 conicto
2822 712 2519 324 conicto
2216 -64 1732 -64 conicto
1439 -64 1229 46 conicto
1019 157 881 384 conicto
2368 1344 moveto
2368 1823 2169 2095 conicto
1971 2368 1624 2368 conicto
1278 2368 1079 2095 conicto
881 1823 881 1344 conicto
881 865 1079 592 conicto
1278 320 1624 320 conicto
1971 320 2169 592 conicto
2368 865 2368 1344 conicto
end_ol grestore 
gsave 10.973138 11.274400 translate 0.035278 -0.035278 scale
start_ol
891 3456 moveto
891 2688 lineto
1791 2688 lineto
1791 2368 lineto
891 2368 lineto
891 902 lineto
891 572 980 478 conicto
1069 384 1342 384 conicto
1791 384 lineto
1791 0 lineto
1342 0 lineto
836 0 643 194 conicto
451 389 451 902 conicto
451 2368 lineto
131 2368 lineto
131 2688 lineto
451 2688 lineto
451 3456 lineto
891 3456 lineto
end_ol grestore 
gsave 11.222905 11.274400 translate 0.035278 -0.035278 scale
start_ol
1489 2368 moveto
1138 2368 933 2094 conicto
729 1820 729 1344 conicto
729 868 932 594 conicto
1135 320 1489 320 conicto
1838 320 2042 595 conicto
2247 870 2247 1344 conicto
2247 1816 2042 2092 conicto
1838 2368 1489 2368 conicto
1489 2752 moveto
2059 2752 2384 2378 conicto
2710 2005 2710 1344 conicto
2710 685 2384 310 conicto
2059 -64 1489 -64 conicto
917 -64 592 310 conicto
268 685 268 1344 conicto
268 2005 592 2378 conicto
917 2752 1489 2752 conicto
end_ol grestore 
gsave 11.615034 11.274400 translate 0.035278 -0.035278 scale
start_ol
2000 2304 moveto
1926 2337 1839 2352 conicto
1753 2368 1648 2368 conicto
1278 2368 1079 2127 conicto
881 1887 881 1437 conicto
881 0 lineto
442 0 lineto
442 2688 lineto
881 2688 lineto
881 2304 lineto
1019 2531 1240 2641 conicto
1461 2752 1777 2752 conicto
1822 2752 1876 2752 conicto
1931 2752 1998 2752 conicto
2000 2304 lineto
end_ol grestore 
0.100000 slw
[] 0 sd
n 4.598900 2.575480 0.500000 0.500000 0 360 ellipse f
0.100000 slw
[] 0 sd
1.000000 1.000000 1.000000 srgb
n 4.576270 10.274400 0.750000 0.750000 0 360 ellipse f
0.000000 0.000000 0.000000 srgb
n 4.576270 10.274400 0.750000 0.750000 0 360 ellipse cp s
n 4.576270 10.274400 0.500000 0.500000 0 360 ellipse f
0.100000 slw
[] 0 sd
0 slc
n 5.146852 2.592029 m 6.295598 2.626724 l s
[] 0 sd
0 slj
0 slc
n 6.670428 2.638045 m 6.163108 2.872837 l 6.295598 2.626724 l 6.178203 2.373065 l ef
n 6.670428 2.638045 m 6.163108 2.872837 l 6.295598 2.626724 l 6.178203 2.373065 l cp s
0.100000 slw
[] 0 sd
0 slc
n 10.842535 2.624048 m 12.315104 2.593076 l s
[] 0 sd
0 slj
0 slc
n 12.690021 2.585191 m 12.195389 2.845650 l 12.315104 2.593076 l 12.184875 2.345760 l ef
n 12.690021 2.585191 m 12.195389 2.845650 l 12.315104 2.593076 l 12.184875 2.345760 l cp s
0.100000 slw
[] 0 sd
0 slc
n 22.151800 2.582840 m 24.324464 2.586900 l s
[] 0 sd
0 slj
0 slc
n 24.699464 2.587601 m 24.198997 2.836666 l 24.324464 2.586900 l 24.199932 2.336667 l ef
n 24.699464 2.587601 m 24.198997 2.836666 l 24.324464 2.586900 l 24.199932 2.336667 l cp s
0.100000 slw
[] 0 sd
0 slc
n 26.742800 3.891420 m 26.757492 4.663335 l s
[] 0 sd
0 slj
0 slc
n 26.764629 5.038267 m 26.505159 4.543115 l 26.757492 4.663335 l 27.005068 4.533600 l ef
n 26.764629 5.038267 m 26.505159 4.543115 l 26.757492 4.663335 l 27.005068 4.533600 l cp s
0.100000 slw
[] 0 sd
0 slc
n 24.783780 10.274400 m 22.569003 10.274400 l s
[] 0 sd
0 slj
0 slc
n 22.194003 10.274400 m 22.694003 10.024400 l 22.569003 10.274400 l 22.694003 10.524400 l ef
n 22.194003 10.274400 m 22.694003 10.024400 l 22.569003 10.274400 l 22.694003 10.524400 l cp s
0.100000 slw
[] 0 sd
0 slc
n 15.969300 10.274400 m 13.802803 10.274400 l s
[] 0 sd
0 slj
0 slc
n 13.427803 10.274400 m 13.927803 10.024400 l 13.802803 10.274400 l 13.927803 10.524400 l ef
n 13.427803 10.274400 m 13.927803 10.024400 l 13.802803 10.274400 l 13.927803 10.524400 l cp s
0.100000 slw
[] 0 sd
0 slc
n 7.122300 10.274400 m 5.813073 10.274400 l s
[] 0 sd
0 slj
0 slc
n 5.438073 10.274400 m 5.938073 10.024400 l 5.813073 10.274400 l 5.938073 10.524400 l ef
n 5.438073 10.274400 m 5.938073 10.024400 l 5.813073 10.274400 l 5.938073 10.524400 l cp s
0.100000 slw
[] 0 sd
0 slc
0 slj
0.100000 slw
0 slc
0 slj
[] 0 sd
0.937255 0.890196 0.800000 srgb
n 23.710316 5.150050 m 29.823196 5.150050 l 29.823196 7.623470 l 23.710316 7.623470 l ef
0.000000 0.000000 0.000000 srgb
n 23.710316 5.150050 m 29.823196 5.150050 l 29.823196 7.623470 l 23.710316 7.623470 l cp s
0 slc
0 slj
[] 0 sd
n 24.321604 5.150050 m 24.321604 7.623470 l s
0 slc
0 slj
[] 0 sd
n 29.211908 5.150050 m 29.211908 7.623470 l s
gsave 25.393006 6.586760 translate 0.035278 -0.035278 scale
start_ol
1489 2368 moveto
1138 2368 933 2094 conicto
729 1820 729 1344 conicto
729 868 932 594 conicto
1135 320 1489 320 conicto
1838 320 2042 595 conicto
2247 870 2247 1344 conicto
2247 1816 2042 2092 conicto
1838 2368 1489 2368 conicto
1489 2752 moveto
2059 2752 2384 2378 conicto
2710 2005 2710 1344 conicto
2710 685 2384 310 conicto
2059 -64 1489 -64 conicto
917 -64 592 310 conicto
268 685 268 1344 conicto
268 2005 592 2378 conicto
917 2752 1489 2752 conicto
end_ol grestore 
gsave 25.785135 6.586760 translate 0.035278 -0.035278 scale
start_ol
891 3456 moveto
891 2688 lineto
1791 2688 lineto
1791 2368 lineto
891 2368 lineto
891 902 lineto
891 572 980 478 conicto
1069 384 1342 384 conicto
1791 384 lineto
1791 0 lineto
1342 0 lineto
836 0 643 194 conicto
451 389 451 902 conicto
451 2368 lineto
131 2368 lineto
131 2688 lineto
451 2688 lineto
451 3456 lineto
891 3456 lineto
end_ol grestore 
gsave 26.034902 6.586760 translate 0.035278 -0.035278 scale
start_ol
1805 3712 moveto
1805 3328 lineto
1387 3328 lineto
1152 3328 1060 3237 conicto
969 3147 969 2912 conicto
969 2688 lineto
1689 2688 lineto
1689 2368 lineto
969 2368 lineto
969 0 lineto
530 0 lineto
530 2368 lineto
112 2368 lineto
112 2688 lineto
530 2688 lineto
530 2864 lineto
530 3307 736 3509 conicto
943 3712 1392 3712 conicto
1805 3712 lineto
end_ol grestore 
gsave 26.259690 6.586760 translate 0.035278 -0.035278 scale
start_ol
933 384 moveto
2608 384 lineto
2608 0 lineto
356 0 lineto
356 384 lineto
629 668 1100 1146 conicto
1572 1625 1694 1763 conicto
1924 2023 2015 2203 conicto
2107 2384 2107 2558 conicto
2107 2842 1908 3021 conicto
1710 3200 1392 3200 conicto
1166 3200 915 3104 conicto
665 3009 380 2816 conicto
380 3328 lineto
670 3455 921 3519 conicto
1173 3584 1382 3584 conicto
1933 3584 2261 3309 conicto
2589 3034 2589 2574 conicto
2589 2356 2507 2160 conicto
2425 1965 2209 1700 conicto
2149 1631 1831 1302 conicto
1513 974 933 384 conicto
end_ol grestore 
gsave 26.666810 6.586760 translate 0.035278 -0.035278 scale
start_ol
933 384 moveto
2608 384 lineto
2608 0 lineto
356 0 lineto
356 384 lineto
629 668 1100 1146 conicto
1572 1625 1694 1763 conicto
1924 2023 2015 2203 conicto
2107 2384 2107 2558 conicto
2107 2842 1908 3021 conicto
1710 3200 1392 3200 conicto
1166 3200 915 3104 conicto
665 3009 380 2816 conicto
380 3328 lineto
670 3455 921 3519 conicto
1173 3584 1382 3584 conicto
1933 3584 2261 3309 conicto
2589 3034 2589 2574 conicto
2589 2356 2507 2160 conicto
2425 1965 2209 1700 conicto
2149 1631 1831 1302 conicto
1513 974 933 384 conicto
end_ol grestore 
gsave 27.073929 6.586760 translate 0.035278 -0.035278 scale
start_ol
2373 2560 moveto
2373 2176 lineto
2188 2272 2001 2320 conicto
1815 2368 1625 2368 conicto
1199 2368 964 2099 conicto
729 1830 729 1344 conicto
729 858 964 589 conicto
1199 320 1625 320 conicto
1815 320 2001 368 conicto
2188 416 2373 512 conicto
2373 128 lineto
2190 32 1994 -16 conicto
1798 -64 1577 -64 conicto
976 -64 622 316 conicto
268 697 268 1344 conicto
268 2000 625 2376 conicto
983 2752 1606 2752 conicto
1808 2752 2000 2704 conicto
2192 2656 2373 2560 conicto
end_ol grestore 
gsave 27.426098 6.586760 translate 0.035278 -0.035278 scale
start_ol
2154 2560 moveto
2154 2176 lineto
1969 2272 1769 2320 conicto
1570 2368 1356 2368 conicto
1030 2368 867 2269 conicto
705 2170 705 1972 conicto
705 1821 821 1735 conicto
938 1649 1290 1571 conicto
1439 1538 lineto
1905 1438 2101 1255 conicto
2297 1072 2297 744 conicto
2297 371 2003 153 conicto
1710 -64 1197 -64 conicto
984 -64 752 -16 conicto
521 32 264 128 conicto
264 576 lineto
506 448 741 384 conicto
976 320 1207 320 conicto
1516 320 1682 425 conicto
1848 531 1848 722 conicto
1848 900 1728 994 conicto
1608 1089 1202 1177 conicto
1050 1212 lineto
644 1298 463 1476 conicto
283 1654 283 1964 conicto
283 2341 549 2546 conicto
815 2752 1304 2752 conicto
1546 2752 1760 2704 conicto
1974 2656 2154 2560 conicto
end_ol grestore 
gsave 27.758282 6.586760 translate 0.035278 -0.035278 scale
start_ol
145 2688 moveto
608 2688 lineto
1439 432 lineto
2271 2688 lineto
2734 2688 lineto
1736 0 lineto
1142 0 lineto
145 2688 lineto
end_ol grestore 
0.100000 slw
[] 0 sd
0 slc
n 26.766756 7.623470 m 26.765178 8.336588 l s
[] 0 sd
0 slj
0 slc
n 26.764347 8.711587 m 26.515455 8.211035 l 26.765178 8.336588 l 27.015454 8.212142 l ef
n 26.764347 8.711587 m 26.515455 8.211035 l 26.765178 8.336588 l 27.015454 8.212142 l cp s
showpage
