code,Line,IPC,Misses L2
1,310,0.41,0.51
2,549,0.52,0.46
3,593,0.42,0.57
4,810,0.62,0.53
5,997,0.42,0.61
6,1037,0.53,0.47
7,1110,0.41,0.48
8,1142,0.41,0.47
9,1171,0.41,0.57
10,1187,0.41,0.47
11,1216,0.41,0.59
12,1240,0.4,0.58
13,1538,0.57,0.63
14,1612,0.41,0.51
15,1646,0.49,0.63
16,1798,0.42,0.49
17,2051,0.41,0.45
18,2058,0.41,0.46
19,2091,0.41,0.47
20,2104,0.4,0.51
21,2129,0.41,0.45
22,2145,0.41,0.52
23,2182,0.41,0.48
24,2216,0.41,0.46
25,2269,0.4,0.52
26,2326,0.41,0.47
27,2367,0.41,0.49
28,2437,0.41,0.46
29,2495,0.4,0.46
30,2570,0.4,0.45
